%!PS-Adobe-3.0 EPSF-3.0
%%Title: graphics/dataugm_estimated_pcainput_noinc_noscaled.eps
%%Creator: matplotlib version 3.0.3, http://matplotlib.org/
%%CreationDate: Fri May  3 15:19:07 2019
%%Orientation: portrait
%%BoundingBox: 75 223 536 568
%%EndComments
%%BeginProlog
/mpldict 8 dict def
mpldict begin
/m { moveto } bind def
/l { lineto } bind def
/r { rlineto } bind def
/c { curveto } bind def
/cl { closepath } bind def
/box {
m
1 index 0 r
0 exch r
neg 0 r
cl
} bind def
/clipbox {
box
clip
newpath
} bind def
%!PS-Adobe-3.0 Resource-Font
%%Title: DejaVu Sans
%%Copyright: Copyright (c) 2003 by Bitstream, Inc. All Rights Reserved. Copyright (c) 2006 by Tavmjong Bah. All Rights Reserved. DejaVu changes are in public domain 
%%Creator: Converted from TrueType to type 3 by PPR
25 dict begin
/_d{bind def}bind def
/_m{moveto}_d
/_l{lineto}_d
/_cl{closepath eofill}_d
/_c{curveto}_d
/_sc{7 -1 roll{setcachedevice}{pop pop pop pop pop pop}ifelse}_d
/_e{exec}_d
/FontName /DejaVuSans def
/PaintType 0 def
/FontMatrix[.001 0 0 .001 0 0]def
/FontBBox[-1021 -463 1793 1232]def
/FontType 3 def
/Encoding [ /space /zero /one /two /three /four /five /six /seven /eight /G /M /P /R /S /Y /bracketleft /bracketright /a /e /g /i /m /n /o /z /uni0394 ] def
/FontInfo 10 dict dup begin
/FamilyName (DejaVu Sans) def
/FullName (DejaVu Sans) def
/Notice (Copyright (c) 2003 by Bitstream, Inc. All Rights Reserved. Copyright (c) 2006 by Tavmjong Bah. All Rights Reserved. DejaVu changes are in public domain ) def
/Weight (Book) def
/Version (Version 2.35) def
/ItalicAngle 0.0 def
/isFixedPitch false def
/UnderlinePosition -130 def
/UnderlineThickness 90 def
end readonly def
/CharStrings 28 dict dup begin
/.notdef 0 def
/space{318 0 0 0 0 0 _sc
}_d
/zero{636 0 66 -13 570 742 _sc
318 664 _m
267 664 229 639 203 589 _c
177 539 165 464 165 364 _c
165 264 177 189 203 139 _c
229 89 267 64 318 64 _c
369 64 407 89 433 139 _c
458 189 471 264 471 364 _c
471 464 458 539 433 589 _c
407 639 369 664 318 664 _c
318 742 _m
399 742 461 709 505 645 _c
548 580 570 486 570 364 _c
570 241 548 147 505 83 _c
461 19 399 -13 318 -13 _c
236 -13 173 19 130 83 _c
87 147 66 241 66 364 _c
66 486 87 580 130 645 _c
173 709 236 742 318 742 _c
_cl}_d
/one{636 0 110 0 544 729 _sc
124 83 _m
285 83 _l
285 639 _l
110 604 _l
110 694 _l
284 729 _l
383 729 _l
383 83 _l
544 83 _l
544 0 _l
124 0 _l
124 83 _l
_cl}_d
/two{{636 0 73 0 536 742 _sc
192 83 _m
536 83 _l
536 0 _l
73 0 _l
73 83 _l
110 121 161 173 226 239 _c
290 304 331 346 348 365 _c
380 400 402 430 414 455 _c
426 479 433 504 433 528 _c
433 566 419 598 392 622 _c
365 646 330 659 286 659 _c
255 659 222 653 188 643 _c
154 632 117 616 78 594 _c
78 694 _l
118 710 155 722 189 730 _c
223 738 255 742 284 742 _c
}_e{359 742 419 723 464 685 _c
509 647 532 597 532 534 _c
532 504 526 475 515 449 _c
504 422 484 390 454 354 _c
446 344 420 317 376 272 _c
332 227 271 164 192 83 _c
_cl}_e}_d
/three{{636 0 76 -13 556 742 _sc
406 393 _m
453 383 490 362 516 330 _c
542 298 556 258 556 212 _c
556 140 531 84 482 45 _c
432 6 362 -13 271 -13 _c
240 -13 208 -10 176 -4 _c
144 1 110 10 76 22 _c
76 117 _l
103 101 133 89 166 81 _c
198 73 232 69 268 69 _c
330 69 377 81 409 105 _c
441 129 458 165 458 212 _c
458 254 443 288 413 312 _c
383 336 341 349 287 349 _c
}_e{202 349 _l
202 430 _l
291 430 _l
339 430 376 439 402 459 _c
428 478 441 506 441 543 _c
441 580 427 609 401 629 _c
374 649 336 659 287 659 _c
260 659 231 656 200 650 _c
169 644 135 635 98 623 _c
98 711 _l
135 721 170 729 203 734 _c
235 739 266 742 296 742 _c
370 742 429 725 473 691 _c
517 657 539 611 539 553 _c
539 513 527 479 504 451 _c
481 423 448 403 406 393 _c
_cl}_e}_d
/four{636 0 49 0 580 729 _sc
378 643 _m
129 254 _l
378 254 _l
378 643 _l
352 729 _m
476 729 _l
476 254 _l
580 254 _l
580 172 _l
476 172 _l
476 0 _l
378 0 _l
378 172 _l
49 172 _l
49 267 _l
352 729 _l
_cl}_d
/five{{636 0 77 -13 549 729 _sc
108 729 _m
495 729 _l
495 646 _l
198 646 _l
198 467 _l
212 472 227 476 241 478 _c
255 480 270 482 284 482 _c
365 482 429 459 477 415 _c
525 370 549 310 549 234 _c
549 155 524 94 475 51 _c
426 8 357 -13 269 -13 _c
238 -13 207 -10 175 -6 _c
143 -1 111 6 77 17 _c
77 116 _l
106 100 136 88 168 80 _c
199 72 232 69 267 69 _c
}_e{323 69 368 83 401 113 _c
433 143 450 183 450 234 _c
450 284 433 324 401 354 _c
368 384 323 399 267 399 _c
241 399 214 396 188 390 _c
162 384 135 375 108 363 _c
108 729 _l
_cl}_e}_d
/six{{636 0 70 -13 573 742 _sc
330 404 _m
286 404 251 388 225 358 _c
199 328 186 286 186 234 _c
186 181 199 139 225 109 _c
251 79 286 64 330 64 _c
374 64 409 79 435 109 _c
461 139 474 181 474 234 _c
474 286 461 328 435 358 _c
409 388 374 404 330 404 _c
526 713 _m
526 623 _l
501 635 476 644 451 650 _c
425 656 400 659 376 659 _c
310 659 260 637 226 593 _c
}_e{192 549 172 482 168 394 _c
187 422 211 444 240 459 _c
269 474 301 482 336 482 _c
409 482 467 459 509 415 _c
551 371 573 310 573 234 _c
573 159 550 99 506 54 _c
462 9 403 -13 330 -13 _c
246 -13 181 19 137 83 _c
92 147 70 241 70 364 _c
70 479 97 571 152 639 _c
206 707 280 742 372 742 _c
396 742 421 739 447 735 _c
472 730 498 723 526 713 _c
_cl}_e}_d
/seven{636 0 82 0 551 729 _sc
82 729 _m
551 729 _l
551 687 _l
286 0 _l
183 0 _l
432 646 _l
82 646 _l
82 729 _l
_cl}_d
/eight{{636 0 68 -13 568 742 _sc
318 346 _m
271 346 234 333 207 308 _c
180 283 167 249 167 205 _c
167 161 180 126 207 101 _c
234 76 271 64 318 64 _c
364 64 401 76 428 102 _c
455 127 469 161 469 205 _c
469 249 455 283 429 308 _c
402 333 365 346 318 346 _c
219 388 _m
177 398 144 418 120 447 _c
96 476 85 511 85 553 _c
85 611 105 657 147 691 _c
188 725 245 742 318 742 _c
}_e{390 742 447 725 489 691 _c
530 657 551 611 551 553 _c
551 511 539 476 515 447 _c
491 418 459 398 417 388 _c
464 377 501 355 528 323 _c
554 291 568 251 568 205 _c
568 134 546 80 503 43 _c
459 5 398 -13 318 -13 _c
237 -13 175 5 132 43 _c
89 80 68 134 68 205 _c
68 251 81 291 108 323 _c
134 355 171 377 219 388 _c
183 544 _m
183 506 194 476 218 455 _c
}_e{242 434 275 424 318 424 _c
360 424 393 434 417 455 _c
441 476 453 506 453 544 _c
453 582 441 611 417 632 _c
393 653 360 664 318 664 _c
275 664 242 653 218 632 _c
194 611 183 582 183 544 _c
_cl}_e}_d
/G{{775 0 56 -13 693 742 _sc
595 104 _m
595 300 _l
434 300 _l
434 381 _l
693 381 _l
693 68 _l
655 40 613 20 567 7 _c
521 -6 472 -13 420 -13 _c
306 -13 216 20 152 86 _c
88 152 56 245 56 364 _c
56 482 88 575 152 642 _c
216 708 306 742 420 742 _c
467 742 512 736 555 724 _c
598 712 638 695 674 673 _c
674 568 _l
637 598 598 621 557 637 _c
516 653 473 661 428 661 _c
}_e{338 661 271 636 227 586 _c
182 536 160 462 160 364 _c
160 265 182 191 227 141 _c
271 91 338 67 428 67 _c
462 67 493 70 521 76 _c
549 82 573 91 595 104 _c
_cl}_e}_d
/M{863 0 98 0 765 729 _sc
98 729 _m
245 729 _l
431 233 _l
618 729 _l
765 729 _l
765 0 _l
669 0 _l
669 640 _l
481 140 _l
382 140 _l
194 640 _l
194 0 _l
98 0 _l
98 729 _l
_cl}_d
/P{603 0 98 0 569 729 _sc
197 648 _m
197 374 _l
321 374 _l
367 374 402 385 427 409 _c
452 433 465 467 465 511 _c
465 555 452 588 427 612 _c
402 636 367 648 321 648 _c
197 648 _l
98 729 _m
321 729 _l
402 729 464 710 506 673 _c
548 636 569 582 569 511 _c
569 439 548 384 506 348 _c
464 311 402 293 321 293 _c
197 293 _l
197 0 _l
98 0 _l
98 729 _l
_cl}_d
/R{{695 0 98 0 666 729 _sc
444 342 _m
465 334 486 319 506 296 _c
526 272 546 240 566 199 _c
666 0 _l
560 0 _l
467 187 _l
443 235 419 268 397 284 _c
374 300 343 308 304 308 _c
197 308 _l
197 0 _l
98 0 _l
98 729 _l
321 729 _l
404 729 466 711 507 677 _c
548 642 569 589 569 519 _c
569 473 558 434 537 404 _c
515 374 484 353 444 342 _c
197 648 _m
197 389 _l
321 389 _l
}_e{368 389 404 400 428 422 _c
452 444 465 476 465 519 _c
465 561 452 593 428 615 _c
404 637 368 648 321 648 _c
197 648 _l
_cl}_e}_d
/S{{635 0 66 -13 579 742 _sc
535 705 _m
535 609 _l
497 627 462 640 429 649 _c
395 657 363 662 333 662 _c
279 662 237 651 208 631 _c
179 610 165 580 165 542 _c
165 510 174 485 194 469 _c
213 452 250 439 304 429 _c
364 417 _l
437 403 491 378 526 343 _c
561 307 579 260 579 201 _c
579 130 555 77 508 41 _c
460 5 391 -13 300 -13 _c
265 -13 228 -9 189 -2 _c
}_e{150 5 110 16 69 32 _c
69 134 _l
109 111 148 94 186 83 _c
224 71 262 66 300 66 _c
356 66 399 77 430 99 _c
460 121 476 152 476 194 _c
476 230 465 258 443 278 _c
421 298 385 313 335 323 _c
275 335 _l
201 349 148 372 115 404 _c
82 435 66 478 66 534 _c
66 598 88 649 134 686 _c
179 723 242 742 322 742 _c
356 742 390 739 426 733 _c
461 727 497 717 535 705 _c
}_e{_cl}_e}_d
/Y{611 0 -1 0 613 729 _sc
-1 729 _m
104 729 _l
306 429 _l
507 729 _l
613 729 _l
355 347 _l
355 0 _l
256 0 _l
256 347 _l
-1 729 _l
_cl}_d
/bracketleft{390 0 86 -131 293 760 _sc
86 760 _m
293 760 _l
293 690 _l
176 690 _l
176 -61 _l
293 -61 _l
293 -131 _l
86 -131 _l
86 760 _l
_cl}_d
/bracketright{390 0 97 -131 304 760 _sc
304 760 _m
304 -131 _l
97 -131 _l
97 -61 _l
214 -61 _l
214 690 _l
97 690 _l
97 760 _l
304 760 _l
_cl}_d
/a{{613 0 60 -13 522 560 _sc
343 275 _m
270 275 220 266 192 250 _c
164 233 150 205 150 165 _c
150 133 160 107 181 89 _c
202 70 231 61 267 61 _c
317 61 357 78 387 114 _c
417 149 432 196 432 255 _c
432 275 _l
343 275 _l
522 312 _m
522 0 _l
432 0 _l
432 83 _l
411 49 385 25 355 10 _c
325 -5 287 -13 243 -13 _c
187 -13 142 2 109 33 _c
76 64 60 106 60 159 _c
}_e{60 220 80 266 122 298 _c
163 329 224 345 306 345 _c
432 345 _l
432 354 _l
432 395 418 427 391 450 _c
364 472 326 484 277 484 _c
245 484 215 480 185 472 _c
155 464 127 453 100 439 _c
100 522 _l
132 534 164 544 195 550 _c
226 556 256 560 286 560 _c
365 560 424 539 463 498 _c
502 457 522 395 522 312 _c
_cl}_e}_d
/e{{615 0 55 -13 562 560 _sc
562 296 _m
562 252 _l
149 252 _l
153 190 171 142 205 110 _c
238 78 284 62 344 62 _c
378 62 412 66 444 74 _c
476 82 509 95 541 113 _c
541 28 _l
509 14 476 3 442 -3 _c
408 -9 373 -13 339 -13 _c
251 -13 182 12 131 62 _c
80 112 55 181 55 268 _c
55 357 79 428 127 481 _c
175 533 241 560 323 560 _c
397 560 455 536 498 489 _c
}_e{540 441 562 377 562 296 _c
472 322 _m
471 371 457 410 431 440 _c
404 469 368 484 324 484 _c
274 484 234 469 204 441 _c
174 413 156 373 152 322 _c
472 322 _l
_cl}_e}_d
/g{{635 0 55 -207 544 560 _sc
454 280 _m
454 344 440 395 414 431 _c
387 467 349 485 301 485 _c
253 485 215 467 188 431 _c
161 395 148 344 148 280 _c
148 215 161 165 188 129 _c
215 93 253 75 301 75 _c
349 75 387 93 414 129 _c
440 165 454 215 454 280 _c
544 68 _m
544 -24 523 -93 482 -139 _c
440 -184 377 -207 292 -207 _c
260 -207 231 -204 203 -200 _c
175 -195 147 -188 121 -178 _c
}_e{121 -91 _l
147 -105 173 -115 199 -122 _c
225 -129 251 -133 278 -133 _c
336 -133 380 -117 410 -87 _c
439 -56 454 -10 454 52 _c
454 96 _l
435 64 411 40 382 24 _c
353 8 319 0 279 0 _c
211 0 157 25 116 76 _c
75 127 55 195 55 280 _c
55 364 75 432 116 483 _c
157 534 211 560 279 560 _c
319 560 353 552 382 536 _c
411 520 435 496 454 464 _c
454 547 _l
544 547 _l
}_e{544 68 _l
_cl}_e}_d
/i{278 0 94 0 184 760 _sc
94 547 _m
184 547 _l
184 0 _l
94 0 _l
94 547 _l
94 760 _m
184 760 _l
184 646 _l
94 646 _l
94 760 _l
_cl}_d
/m{{974 0 91 0 889 560 _sc
520 442 _m
542 482 569 511 600 531 _c
631 550 668 560 711 560 _c
767 560 811 540 842 500 _c
873 460 889 403 889 330 _c
889 0 _l
799 0 _l
799 327 _l
799 379 789 418 771 444 _c
752 469 724 482 686 482 _c
639 482 602 466 575 435 _c
548 404 535 362 535 309 _c
535 0 _l
445 0 _l
445 327 _l
445 379 435 418 417 444 _c
398 469 369 482 331 482 _c
}_e{285 482 248 466 221 435 _c
194 404 181 362 181 309 _c
181 0 _l
91 0 _l
91 547 _l
181 547 _l
181 462 _l
201 495 226 520 255 536 _c
283 552 317 560 357 560 _c
397 560 430 550 458 530 _c
486 510 506 480 520 442 _c
_cl}_e}_d
/n{634 0 91 0 549 560 _sc
549 330 _m
549 0 _l
459 0 _l
459 327 _l
459 379 448 417 428 443 _c
408 469 378 482 338 482 _c
289 482 251 466 223 435 _c
195 404 181 362 181 309 _c
181 0 _l
91 0 _l
91 547 _l
181 547 _l
181 462 _l
202 494 227 519 257 535 _c
286 551 320 560 358 560 _c
420 560 468 540 500 501 _c
532 462 549 405 549 330 _c
_cl}_d
/o{612 0 55 -13 557 560 _sc
306 484 _m
258 484 220 465 192 427 _c
164 389 150 338 150 273 _c
150 207 163 156 191 118 _c
219 80 257 62 306 62 _c
354 62 392 80 420 118 _c
448 156 462 207 462 273 _c
462 337 448 389 420 427 _c
392 465 354 484 306 484 _c
306 560 _m
384 560 445 534 490 484 _c
534 433 557 363 557 273 _c
557 183 534 113 490 63 _c
445 12 384 -13 306 -13 _c
227 -13 165 12 121 63 _c
77 113 55 183 55 273 _c
55 363 77 433 121 484 _c
165 534 227 560 306 560 _c
_cl}_d
/z{525 0 43 0 482 547 _sc
55 547 _m
482 547 _l
482 465 _l
144 72 _l
482 72 _l
482 0 _l
43 0 _l
43 82 _l
381 475 _l
55 475 _l
55 547 _l
_cl}_d
/uni0394{684 0 8 0 676 729 _sc
342 632 _m
142 82 _l
542 82 _l
342 632 _l
8 0 _m
286 729 _l
398 729 _l
676 0 _l
8 0 _l
_cl}_d
end readonly def

/BuildGlyph
 {exch begin
 CharStrings exch
 2 copy known not{pop /.notdef}if
 true 3 1 roll get exec
 end}_d

/BuildChar {
 1 index /Encoding get exch get
 1 index /BuildGlyph get exec
}_d

FontName currentdict end definefont pop
end
%%EndProlog
mpldict begin
75.6 223.2 translate
460.8 345.6 0 0 clipbox
gsave
0 0 m
460.8 0 l
460.8 345.6 l
0 345.6 l
cl
1.000 setgray
fill
grestore
gsave
57.6 38.016 m
414.72 38.016 l
414.72 304.128 l
57.6 304.128 l
cl
1.000 setgray
fill
grestore
1.000 setlinewidth
1 setlinejoin
0 setlinecap
[] 0 setdash
1.000 0.000 0.000 setrgbcolor
gsave
357.1 266.1 57.6 38.02 clipbox
391.314823 271.061405 m
390.24986 267.783785 l
386.803566 267.783785 l
389.591676 265.758104 l
388.526713 262.480484 l
391.314823 264.506165 l
394.102934 262.480484 l
393.03797 265.758104 l
395.82608 267.783785 l
392.379787 267.783785 l
cl
stroke
grestore
gsave
357.1 266.1 57.6 38.02 clipbox
384.142331 258.308391 m
383.077367 255.03077 l
379.631073 255.03077 l
382.419184 253.00509 l
381.35422 249.72747 l
384.142331 251.75315 l
386.930441 249.72747 l
385.865477 253.00509 l
388.653588 255.03077 l
385.207294 255.03077 l
cl
stroke
grestore
gsave
357.1 266.1 57.6 38.02 clipbox
393.368371 243.448514 m
392.303408 240.170893 l
388.857114 240.170893 l
391.645224 238.145213 l
390.580261 234.867593 l
393.368371 236.893273 l
396.156481 234.867593 l
395.091518 238.145213 l
397.879628 240.170893 l
394.433334 240.170893 l
cl
stroke
grestore
gsave
357.1 266.1 57.6 38.02 clipbox
391.863069 250.096167 m
390.798106 246.818547 l
387.351812 246.818547 l
390.139923 244.792866 l
389.074959 241.515246 l
391.863069 243.540927 l
394.65118 241.515246 l
393.586216 244.792866 l
396.374327 246.818547 l
392.928033 246.818547 l
cl
stroke
grestore
gsave
357.1 266.1 57.6 38.02 clipbox
382.691693 209.064731 m
381.62673 205.787111 l
378.180436 205.787111 l
380.968546 203.76143 l
379.903583 200.48381 l
382.691693 202.509491 l
385.479803 200.48381 l
384.41484 203.76143 l
387.20295 205.787111 l
383.756656 205.787111 l
cl
stroke
grestore
gsave
357.1 266.1 57.6 38.02 clipbox
391.314823 250.557473 m
390.24986 247.279852 l
386.803566 247.279852 l
389.591676 245.254172 l
388.526713 241.976552 l
391.314823 244.002232 l
394.102934 241.976552 l
393.03797 245.254172 l
395.82608 247.279852 l
392.379787 247.279852 l
cl
stroke
grestore
gsave
357.1 266.1 57.6 38.02 clipbox
392.388582 239.334528 m
391.323619 236.056907 l
387.877325 236.056907 l
390.665435 234.031227 l
389.600472 230.753607 l
392.388582 232.779287 l
395.176693 230.753607 l
394.111729 234.031227 l
396.899839 236.056907 l
393.453546 236.056907 l
cl
stroke
grestore
gsave
357.1 266.1 57.6 38.02 clipbox
391.576126 260.600848 m
390.511163 257.323228 l
387.064869 257.323228 l
389.852979 255.297547 l
388.788016 252.019927 l
391.576126 254.045608 l
394.364237 252.019927 l
393.299273 255.297547 l
396.087384 257.323228 l
392.64109 257.323228 l
cl
stroke
grestore
gsave
357.1 266.1 57.6 38.02 clipbox
391.863069 255.22215 m
390.798106 251.94453 l
387.351812 251.94453 l
390.139923 249.918849 l
389.074959 246.641229 l
391.863069 248.66691 l
394.65118 246.641229 l
393.586216 249.918849 l
396.374327 251.94453 l
392.928033 251.94453 l
cl
stroke
grestore
gsave
357.1 266.1 57.6 38.02 clipbox
391.576126 224.718966 m
390.511163 221.441346 l
387.064869 221.441346 l
389.852979 219.415665 l
388.788016 216.138045 l
391.576126 218.163726 l
394.364237 216.138045 l
393.299273 219.415665 l
396.087384 221.441346 l
392.64109 221.441346 l
cl
stroke
grestore
0.000 setgray
gsave
357.1 266.1 57.6 38.02 clipbox
248.098158 263.756602 m
247.033194 260.478982 l
243.5869 260.478982 l
246.375011 258.453301 l
245.310047 255.175681 l
248.098158 257.201361 l
250.886268 255.175681 l
249.821304 258.453301 l
252.609415 260.478982 l
249.163121 260.478982 l
cl
stroke
grestore
gsave
357.1 266.1 57.6 38.02 clipbox
248.098158 253.504635 m
247.033194 250.227015 l
243.5869 250.227015 l
246.375011 248.201335 l
245.310047 244.923714 l
248.098158 246.949395 l
250.886268 244.923714 l
249.821304 248.201335 l
252.609415 250.227015 l
249.163121 250.227015 l
cl
stroke
grestore
gsave
357.1 266.1 57.6 38.02 clipbox
247.95499 243.061551 m
246.890026 239.783931 l
243.443733 239.783931 l
246.231843 237.75825 l
245.166879 234.48063 l
247.95499 236.506311 l
250.7431 234.48063 l
249.678137 237.75825 l
252.466247 239.783931 l
249.019953 239.783931 l
cl
stroke
grestore
gsave
357.1 266.1 57.6 38.02 clipbox
247.95499 243.061551 m
246.890026 239.783931 l
243.443733 239.783931 l
246.231843 237.75825 l
245.166879 234.48063 l
247.95499 236.506311 l
250.7431 234.48063 l
249.678137 237.75825 l
252.466247 239.783931 l
249.019953 239.783931 l
cl
stroke
grestore
gsave
357.1 266.1 57.6 38.02 clipbox
250.626415 243.481849 m
249.561452 240.204229 l
246.115158 240.204229 l
248.903268 238.178548 l
247.838305 234.900928 l
250.626415 236.926609 l
253.414525 234.900928 l
252.349562 238.178548 l
255.137672 240.204229 l
251.691378 240.204229 l
cl
stroke
grestore
gsave
357.1 266.1 57.6 38.02 clipbox
242.645197 260.185627 m
241.580234 256.908006 l
238.13394 256.908006 l
240.922051 254.882326 l
239.857087 251.604706 l
242.645197 253.630386 l
245.433308 251.604706 l
244.368344 254.882326 l
247.156455 256.908006 l
243.710161 256.908006 l
cl
stroke
grestore
gsave
357.1 266.1 57.6 38.02 clipbox
248.098158 268.882585 m
247.033194 265.604965 l
243.5869 265.604965 l
246.375011 263.579284 l
245.310047 260.301664 l
248.098158 262.327345 l
250.886268 260.301664 l
249.821304 263.579284 l
252.609415 265.604965 l
249.163121 265.604965 l
cl
stroke
grestore
gsave
357.1 266.1 57.6 38.02 clipbox
250.883987 237.981859 m
249.819024 234.704238 l
246.37273 234.704238 l
249.16084 232.678558 l
248.095877 229.400938 l
250.883987 231.426618 l
253.672097 229.400938 l
252.607134 232.678558 l
255.395244 234.704238 l
251.94895 234.704238 l
cl
stroke
grestore
gsave
357.1 266.1 57.6 38.02 clipbox
250.883987 258.485791 m
249.819024 255.208171 l
246.37273 255.208171 l
249.16084 253.18249 l
248.095877 249.90487 l
250.883987 251.930551 l
253.672097 249.90487 l
252.607134 253.18249 l
255.395244 255.208171 l
251.94895 255.208171 l
cl
stroke
grestore
gsave
357.1 266.1 57.6 38.02 clipbox
248.098158 227.87472 m
247.033194 224.5971 l
243.5869 224.5971 l
246.375011 222.571419 l
245.310047 219.293799 l
248.098158 221.31948 l
250.886268 219.293799 l
249.821304 222.571419 l
252.609415 224.5971 l
249.163121 224.5971 l
cl
stroke
grestore
0.000 0.502 0.000 setrgbcolor
gsave
357.1 266.1 57.6 38.02 clipbox
210.553688 263.334581 m
209.488725 260.056961 l
206.042431 260.056961 l
208.830541 258.031281 l
207.765578 254.75366 l
210.553688 256.779341 l
213.341798 254.75366 l
212.276835 258.031281 l
215.064945 260.056961 l
211.618651 260.056961 l
cl
stroke
grestore
gsave
357.1 266.1 57.6 38.02 clipbox
208.101049 264.237093 m
207.036086 260.959472 l
203.589792 260.959473 l
206.377902 258.933792 l
205.312939 255.656172 l
208.101049 257.681852 l
210.889159 255.656172 l
209.824196 258.933792 l
212.612306 260.959473 l
209.166013 260.959472 l
cl
stroke
grestore
gsave
357.1 266.1 57.6 38.02 clipbox
210.553688 258.208598 m
209.488725 254.930978 l
206.042431 254.930978 l
208.830541 252.905297 l
207.765578 249.627677 l
210.553688 251.653358 l
213.341798 249.627677 l
212.276835 252.905297 l
215.064945 254.930978 l
211.618651 254.930978 l
cl
stroke
grestore
gsave
357.1 266.1 57.6 38.02 clipbox
206.391321 258.429611 m
205.326358 255.151991 l
201.880064 255.151991 l
204.668174 253.12631 l
203.603211 249.84869 l
206.391321 251.874371 l
209.179432 249.84869 l
208.114468 253.12631 l
210.902578 255.151991 l
207.456285 255.151991 l
cl
stroke
grestore
gsave
357.1 266.1 57.6 38.02 clipbox
207.286554 271.565758 m
206.221591 268.288138 l
202.775297 268.288138 l
205.563407 266.262457 l
204.498444 262.984837 l
207.286554 265.010518 l
210.074664 262.984837 l
209.009701 266.262457 l
211.797811 268.288138 l
208.351518 268.288138 l
cl
stroke
grestore
gsave
357.1 266.1 57.6 38.02 clipbox
208.101049 238.607177 m
207.036086 235.329557 l
203.589792 235.329557 l
206.377902 233.303876 l
205.312939 230.026256 l
208.101049 232.051937 l
210.889159 230.026256 l
209.824196 233.303876 l
212.612306 235.329557 l
209.166013 235.329557 l
cl
stroke
grestore
gsave
357.1 266.1 57.6 38.02 clipbox
205.689972 295.811796 m
204.625009 292.534176 l
201.178715 292.534176 l
203.966825 290.508496 l
202.901862 287.230875 l
205.689972 289.256556 l
208.478083 287.230875 l
207.413119 290.508496 l
210.201229 292.534176 l
206.754936 292.534176 l
cl
stroke
grestore
gsave
357.1 266.1 57.6 38.02 clipbox
201.967912 265.20425 m
200.902948 261.92663 l
197.456654 261.92663 l
200.244765 259.90095 l
199.179801 256.623329 l
201.967912 258.64901 l
204.756022 256.623329 l
203.691059 259.90095 l
206.479169 261.92663 l
203.032875 261.92663 l
cl
stroke
grestore
gsave
357.1 266.1 57.6 38.02 clipbox
209.243746 225.298124 m
208.178782 222.020504 l
204.732488 222.020504 l
207.520599 219.994823 l
206.455635 216.717203 l
209.243746 218.742884 l
212.031856 216.717203 l
210.966892 219.994823 l
213.755003 222.020504 l
210.308709 222.020504 l
cl
stroke
grestore
gsave
357.1 266.1 57.6 38.02 clipbox
211.953436 220.456755 m
210.888473 217.179135 l
207.442179 217.179135 l
210.230289 215.153454 l
209.165326 211.875834 l
211.953436 213.901515 l
214.741546 211.875834 l
213.676583 215.153454 l
216.464693 217.179135 l
213.018399 217.179135 l
cl
stroke
grestore
0.502 0.000 0.502 setrgbcolor
gsave
357.1 266.1 57.6 38.02 clipbox
81.909037 80.846853 m
80.844074 77.569233 l
77.39778 77.569233 l
80.185891 75.543552 l
79.120927 72.265932 l
81.909037 74.291613 l
84.697148 72.265932 l
83.632184 75.543552 l
86.420295 77.569233 l
82.974001 77.569233 l
cl
stroke
grestore
gsave
357.1 266.1 57.6 38.02 clipbox
81.865827 101.279491 m
80.800863 98.001871 l
77.35457 98.001871 l
80.14268 95.97619 l
79.077717 92.69857 l
81.865827 94.724251 l
84.653937 92.69857 l
83.588974 95.97619 l
86.377084 98.001871 l
82.93079 98.001871 l
cl
stroke
grestore
gsave
357.1 266.1 57.6 38.02 clipbox
80.723694 109.570135 m
79.658731 106.292514 l
76.212437 106.292514 l
79.000547 104.266834 l
77.935584 100.989214 l
80.723694 103.014894 l
83.511805 100.989214 l
82.446841 104.266834 l
85.234952 106.292514 l
81.788658 106.292514 l
cl
stroke
grestore
gsave
357.1 266.1 57.6 38.02 clipbox
81.313806 105.474007 m
80.248843 102.196386 l
76.802549 102.196386 l
79.590659 100.170706 l
78.525696 96.893086 l
81.313806 98.918766 l
84.101916 96.893086 l
83.036953 100.170706 l
85.825063 102.196386 l
82.37877 102.196386 l
cl
stroke
grestore
gsave
357.1 266.1 57.6 38.02 clipbox
80.181739 57.344151 m
79.116776 54.06653 l
75.670482 54.06653 l
78.458592 52.04085 l
77.393629 48.76323 l
80.181739 50.78891 l
82.969849 48.76323 l
81.904886 52.04085 l
84.692996 54.06653 l
81.246702 54.06653 l
cl
stroke
grestore
gsave
357.1 266.1 57.6 38.02 clipbox
81.865827 85.901542 m
80.800863 82.623921 l
77.35457 82.623921 l
80.14268 80.598241 l
79.077717 77.32062 l
81.865827 79.346301 l
84.653937 77.32062 l
83.588974 80.598241 l
86.377084 82.623921 l
82.93079 82.623921 l
cl
stroke
grestore
gsave
357.1 266.1 57.6 38.02 clipbox
82.765572 133.459831 m
81.700608 130.182211 l
78.254315 130.182211 l
81.042425 128.15653 l
79.977461 124.87891 l
82.765572 126.90459 l
85.553682 124.87891 l
84.488719 128.15653 l
87.276829 130.182211 l
83.830535 130.182211 l
cl
stroke
grestore
gsave
357.1 266.1 57.6 38.02 clipbox
81.865827 91.027525 m
80.800863 87.749904 l
77.35457 87.749904 l
80.14268 85.724224 l
79.077717 82.446604 l
81.865827 84.472284 l
84.653937 82.446604 l
83.588974 85.724224 l
86.377084 87.749904 l
82.93079 87.749904 l
cl
stroke
grestore
gsave
357.1 266.1 57.6 38.02 clipbox
77.049486 113.399377 m
75.984523 110.121757 l
72.538229 110.121757 l
75.32634 108.096076 l
74.261376 104.818456 l
77.049486 106.844137 l
79.837597 104.818456 l
78.772633 108.096076 l
81.560744 110.121757 l
78.11445 110.121757 l
cl
stroke
grestore
gsave
357.1 266.1 57.6 38.02 clipbox
82.515896 107.448312 m
81.450932 104.170692 l
78.004638 104.170692 l
80.792749 102.145011 l
79.727785 98.867391 l
82.515896 100.893072 l
85.304006 98.867391 l
84.239042 102.145011 l
87.027153 104.170692 l
83.580859 104.170692 l
cl
stroke
grestore
0.800 setlinewidth
0.000 setgray
gsave
/o {
gsave
newpath
translate
0.8 setlinewidth
1 setlinejoin
0 setlinecap
0 0 m
0 -3.5 l

gsave
0.000 setgray
fill
grestore
stroke
grestore
} bind def
99.5921 38.016 o
grestore
/DejaVuSans findfont
10.000 scalefont
setfont
gsave
93.232720 23.422250 translate
0.000000 rotate
0.000000 0.000000 m /four glyphshow
6.362305 0.000000 m /zero glyphshow
grestore
gsave
/o {
gsave
newpath
translate
0.8 setlinewidth
1 setlinejoin
0 setlinecap
0 0 m
0 -3.5 l

gsave
0.000 setgray
fill
grestore
stroke
grestore
} bind def
166.721 38.016 o
grestore
gsave
160.361204 23.422250 translate
0.000000 rotate
0.000000 0.000000 m /six glyphshow
6.362305 0.000000 m /zero glyphshow
grestore
gsave
/o {
gsave
newpath
translate
0.8 setlinewidth
1 setlinejoin
0 setlinecap
0 0 m
0 -3.5 l

gsave
0.000 setgray
fill
grestore
stroke
grestore
} bind def
233.849 38.016 o
grestore
gsave
227.489687 23.422250 translate
0.000000 rotate
0.000000 0.000000 m /eight glyphshow
6.362305 0.000000 m /zero glyphshow
grestore
gsave
/o {
gsave
newpath
translate
0.8 setlinewidth
1 setlinejoin
0 setlinecap
0 0 m
0 -3.5 l

gsave
0.000 setgray
fill
grestore
stroke
grestore
} bind def
300.978 38.016 o
grestore
gsave
291.438482 23.422250 translate
0.000000 rotate
0.000000 0.000000 m /one glyphshow
6.362305 0.000000 m /zero glyphshow
12.724609 0.000000 m /zero glyphshow
grestore
gsave
/o {
gsave
newpath
translate
0.8 setlinewidth
1 setlinejoin
0 setlinecap
0 0 m
0 -3.5 l

gsave
0.000 setgray
fill
grestore
stroke
grestore
} bind def
368.106 38.016 o
grestore
gsave
358.566965 23.422250 translate
0.000000 rotate
0.000000 0.000000 m /one glyphshow
6.362305 0.000000 m /two glyphshow
12.724609 0.000000 m /zero glyphshow
grestore
/DejaVuSans findfont
14.000 scalefont
setfont
gsave
176.331875 6.703500 translate
0.000000 rotate
0.000000 0.000000 m /R glyphshow
9.727539 0.000000 m /e glyphshow
18.340820 0.000000 m /g glyphshow
27.227539 0.000000 m /i glyphshow
31.117188 0.000000 m /o glyphshow
39.682617 0.000000 m /n glyphshow
48.555664 0.000000 m /space glyphshow
53.005859 0.000000 m /S glyphshow
61.892578 0.000000 m /i glyphshow
65.782227 0.000000 m /z glyphshow
73.130859 0.000000 m /e glyphshow
81.744141 0.000000 m /space glyphshow
86.194336 0.000000 m /bracketleft glyphshow
91.656250 0.000000 m /n glyphshow
100.529297 0.000000 m /m glyphshow
114.166992 0.000000 m /bracketright glyphshow
grestore
gsave
/o {
gsave
newpath
translate
0.8 setlinewidth
1 setlinejoin
0 setlinecap
0 0 m
-3.5 0 l

gsave
0.000 setgray
fill
grestore
stroke
grestore
} bind def
57.6 64.8614 o
grestore
/DejaVuSans findfont
10.000 scalefont
setfont
gsave
44.240625 61.064479 translate
0.000000 rotate
0.000000 0.000000 m /zero glyphshow
grestore
gsave
/o {
gsave
newpath
translate
0.8 setlinewidth
1 setlinejoin
0 setlinecap
0 0 m
-3.5 0 l

gsave
0.000 setgray
fill
grestore
stroke
grestore
} bind def
57.6 116.121 o
grestore
gsave
37.881250 112.324310 translate
0.000000 rotate
0.000000 0.000000 m /one glyphshow
6.362305 0.000000 m /zero glyphshow
grestore
gsave
/o {
gsave
newpath
translate
0.8 setlinewidth
1 setlinejoin
0 setlinecap
0 0 m
-3.5 0 l

gsave
0.000 setgray
fill
grestore
stroke
grestore
} bind def
57.6 167.381 o
grestore
gsave
37.881250 163.584141 translate
0.000000 rotate
0.000000 0.000000 m /two glyphshow
6.362305 0.000000 m /zero glyphshow
grestore
gsave
/o {
gsave
newpath
translate
0.8 setlinewidth
1 setlinejoin
0 setlinecap
0 0 m
-3.5 0 l

gsave
0.000 setgray
fill
grestore
stroke
grestore
} bind def
57.6 218.641 o
grestore
gsave
37.881250 214.843973 translate
0.000000 rotate
0.000000 0.000000 m /three glyphshow
6.362305 0.000000 m /zero glyphshow
grestore
gsave
/o {
gsave
newpath
translate
0.8 setlinewidth
1 setlinejoin
0 setlinecap
0 0 m
-3.5 0 l

gsave
0.000 setgray
fill
grestore
stroke
grestore
} bind def
57.6 269.901 o
grestore
gsave
37.881250 266.103804 translate
0.000000 rotate
0.000000 0.000000 m /four glyphshow
6.362305 0.000000 m /zero glyphshow
grestore
/DejaVuSans findfont
14.000 scalefont
setfont
gsave
30.975000 135.322000 translate
90.000000 rotate
0.000000 0.000000 m /uni0394 glyphshow
9.577148 0.000000 m /Y glyphshow
18.128906 0.000000 m /S glyphshow
27.015625 0.000000 m /space glyphshow
31.465820 0.000000 m /bracketleft glyphshow
36.927734 0.000000 m /M glyphshow
49.006836 0.000000 m /P glyphshow
57.449219 0.000000 m /a glyphshow
66.028320 0.000000 m /bracketright glyphshow
grestore
0.500 setlinewidth
2 setlinecap
1.000 0.000 0.000 setrgbcolor
gsave
357.1 266.1 57.6 38.02 clipbox
391.314823 266.317989 m
391.863069 265.856683 l
392.161813 265.572875 l
391.576126 266.109398 l
392.388582 265.34701 l
392.594787 265.136285 l
382.691693 235.077213 l
389.857244 266.9145 l
389.073943 266.671508 l
390.245576 266.870469 l
394.043559 263.683106 l
390.343538 266.844428 l
390.198721 266.880885 l
393.273924 264.431598 l
393.368371 264.335013 l
396.605526 262.871192 l
384.142331 248.438991 l
386.353883 260.97823 l
398.487273 265.570958 l
stroke
grestore
1.000 setlinewidth
0 setlinecap
gsave
357.1 266.1 57.6 38.02 clipbox
/o {
gsave
newpath
translate
1.0 setlinewidth
1 setlinejoin
0 setlinecap
0 -3 m
0.795609 -3 1.55874 -2.683901 2.12132 -2.12132 c
2.683901 -1.55874 3 -0.795609 3 0 c
3 0.795609 2.683901 1.55874 2.12132 2.12132 c
1.55874 2.683901 0.795609 3 0 3 c
-0.795609 3 -1.55874 2.683901 -2.12132 2.12132 c
-2.683901 1.55874 -3 0.795609 -3 0 c
-3 -0.795609 -2.683901 -1.55874 -2.12132 -2.12132 c
-1.55874 -2.683901 -0.795609 -3 0 -3 c
cl

gsave
grestore
stroke
grestore
} bind def
391.315 266.318 o
391.863 265.857 o
392.162 265.573 o
391.576 266.109 o
392.389 265.347 o
392.595 265.136 o
382.692 235.077 o
389.857 266.915 o
389.074 266.672 o
390.246 266.87 o
394.044 263.683 o
390.344 266.844 o
390.199 266.881 o
393.274 264.432 o
393.368 264.335 o
396.606 262.871 o
384.142 248.439 o
386.354 260.978 o
398.487 265.571 o
grestore
0.500 setlinewidth
2 setlinecap
0.000 setgray
gsave
357.1 266.1 57.6 38.02 clipbox
249.985761 264.947312 m
249.702982 265.052715 l
250.000468 264.939397 l
247.95499 263.94805 l
249.479294 265.074855 l
250.417086 264.611373 l
237.126163 242.340045 l
248.462845 264.551772 l
248.553171 264.636756 l
247.95269 263.944852 l
249.339466 265.062207 l
248.098158 264.139168 l
250.626415 264.368348 l
250.883987 263.994341 l
251.023467 263.756274 l
245.196492 257.843204 l
242.07617 248.704535 l
239.866743 243.661497 l
242.645197 250.316227 l
stroke
grestore
1.000 setlinewidth
0 setlinejoin
0 setlinecap
gsave
357.1 266.1 57.6 38.02 clipbox
/o {
gsave
newpath
translate
1.0 setlinewidth
0 setlinejoin
0 setlinecap
-0 -3 m
3 3 l
-3 3 l
cl

gsave
grestore
stroke
grestore
} bind def
249.986 264.947 o
249.703 265.053 o
250 264.939 o
247.955 263.948 o
249.479 265.075 o
250.417 264.611 o
237.126 242.34 o
248.463 264.552 o
248.553 264.637 o
247.953 263.945 o
249.339 265.062 o
248.098 264.139 o
250.626 264.368 o
250.884 263.994 o
251.023 263.756 o
245.196 257.843 o
242.076 248.705 o
239.867 243.661 o
242.645 250.316 o
grestore
0.500 setlinewidth
1 setlinejoin
2 setlinecap
0.000 0.502 0.000 setrgbcolor
gsave
357.1 266.1 57.6 38.02 clipbox
207.286554 266.822341 m
207.180176 267.102129 l
207.346424 266.663726 l
207.330893 266.704949 l
206.391321 269.064144 l
207.7666 265.532714 l
209.243746 261.562572 l
207.576708 266.047137 l
205.435828 271.031807 l
210.553688 258.591165 l
208.602787 263.252999 l
205.689972 270.564447 l
201.967912 270.7128 l
208.101049 264.619659 l
216.922966 272.215743 l
211.953436 256.721203 l
212.374436 256.533537 l
stroke
grestore
1.000 setlinewidth
0 setlinejoin
0 setlinecap
gsave
357.1 266.1 57.6 38.02 clipbox
/o {
gsave
newpath
translate
1.0 setlinewidth
0 setlinejoin
0 setlinecap
-3 -3 m
3 -3 l
3 3 l
-3 3 l
cl

gsave
grestore
stroke
grestore
} bind def
207.287 266.822 o
207.18 267.102 o
207.346 266.664 o
207.331 266.705 o
206.391 269.064 o
207.767 265.533 o
209.244 261.563 o
207.577 266.047 o
205.436 271.032 o
210.554 258.591 o
208.603 263.253 o
205.69 270.564 o
201.968 270.713 o
208.101 264.62 o
216.923 272.216 o
211.953 256.721 o
212.374 256.534 o
grestore
0.500 setlinewidth
1 setlinejoin
2 setlinecap
0.502 0.000 0.502 setrgbcolor
gsave
357.1 266.1 57.6 38.02 clipbox
77.049486 118.907927 m
79.123945 122.461077 l
79.813711 123.702515 l
80.181739 124.364498 l
80.68838 125.268172 l
80.723694 125.330651 l
81.313806 126.360506 l
81.606693 126.859253 l
81.641097 126.917191 l
81.719969 127.049467 l
81.75754 127.112199 l
81.773028 127.138007 l
81.844612 127.256877 l
81.865827 127.291973 l
81.909037 127.363268 l
81.923658 127.387332 l
82.030036 127.56151 l
82.141837 127.742779 l
82.184093 127.810796 l
82.462837 128.252264 l
82.515896 128.334811 l
82.765572 128.716414 l
83.19872 129.349428 l
83.306139 129.500243 l
83.404144 129.635567 l
89.454027 131.377998 l
stroke
grestore
1.000 setlinewidth
0 setlinejoin
0 setlinecap
gsave
357.1 266.1 57.6 38.02 clipbox
/o {
gsave
newpath
translate
1.0 setlinewidth
0 setlinejoin
0 setlinecap
0 -4.242641 m
4.242641 0 l
0 4.242641 l
-4.242641 0 l
cl

gsave
grestore
stroke
grestore
} bind def
77.0495 118.908 o
79.1239 122.461 o
79.8137 123.703 o
80.1817 124.364 o
80.6884 125.268 o
80.7237 125.331 o
81.3138 126.361 o
81.6067 126.859 o
81.6411 126.917 o
81.72 127.049 o
81.7575 127.112 o
81.773 127.138 o
81.8446 127.257 o
81.8658 127.292 o
81.909 127.363 o
81.9237 127.387 o
82.03 127.562 o
82.1418 127.743 o
82.1841 127.811 o
82.4628 128.252 o
82.5159 128.335 o
82.7656 128.716 o
83.1987 129.349 o
83.3061 129.5 o
83.4041 129.636 o
89.454 131.378 o
grestore
0.800 setlinewidth
2 setlinecap
[] 0 setdash
0.000 setgray
gsave
57.6 38.016 m
57.6 304.128 l
stroke
grestore
gsave
414.72 38.016 m
414.72 304.128 l
stroke
grestore
gsave
57.6 38.016 m
414.72 38.016 l
stroke
grestore
gsave
57.6 304.128 m
414.72 304.128 l
stroke
grestore
1.000 setlinewidth
0 setlinecap
0.800 setgray
gsave
356.641875 222.768625 m
407.72 222.768625 l
409.053333 222.768625 409.72 223.435292 409.72 224.768625 c
409.72 297.128 l
409.72 298.461333 409.053333 299.128 407.72 299.128 c
356.641875 299.128 l
355.308542 299.128 354.641875 298.461333 354.641875 297.128 c
354.641875 224.768625 l
354.641875 223.435292 355.308542 222.768625 356.641875 222.768625 c
cl
gsave
1.000 setgray
fill
grestore
stroke
grestore
0.000 setgray
/DejaVuSans findfont
10.000 scalefont
setfont
gsave
362.430938 287.534250 translate
0.000000 rotate
0.000000 0.000000 m /G glyphshow
7.749023 0.000000 m /a glyphshow
13.876953 0.000000 m /m glyphshow
23.618164 0.000000 m /m glyphshow
33.359375 0.000000 m /a glyphshow
grestore
0.500 setlinewidth
1 setlinejoin
2 setlinecap
[] 0 setdash
1.000 0.000 0.000 setrgbcolor
gsave
358.641875 276.362375 m
378.641875 276.362375 l
stroke
grestore
1.000 setlinewidth
0 setlinecap
gsave
/o {
gsave
newpath
translate
1.0 setlinewidth
1 setlinejoin
0 setlinecap
0 -3 m
0.795609 -3 1.55874 -2.683901 2.12132 -2.12132 c
2.683901 -1.55874 3 -0.795609 3 0 c
3 0.795609 2.683901 1.55874 2.12132 2.12132 c
1.55874 2.683901 0.795609 3 0 3 c
-0.795609 3 -1.55874 2.683901 -2.12132 2.12132 c
-2.683901 1.55874 -3 0.795609 -3 0 c
-3 -0.795609 -2.683901 -1.55874 -2.12132 -2.12132 c
-1.55874 -2.683901 -0.795609 -3 0 -3 c
cl

gsave
grestore
stroke
grestore
} bind def
368.642 276.362 o
grestore
0.000 setgray
gsave
386.641875 272.862375 translate
0.000000 rotate
0.000000 0.000000 m /one glyphshow
6.362305 0.000000 m /two glyphshow
12.724609 0.000000 m /seven glyphshow
grestore
0.500 setlinewidth
2 setlinecap
gsave
358.641875 261.6905 m
378.641875 261.6905 l
stroke
grestore
1.000 setlinewidth
0 setlinejoin
0 setlinecap
gsave
/o {
gsave
newpath
translate
1.0 setlinewidth
0 setlinejoin
0 setlinecap
-0 -3 m
3 3 l
-3 3 l
cl

gsave
grestore
stroke
grestore
} bind def
368.642 261.69 o
grestore
gsave
386.641875 258.190500 translate
0.000000 rotate
0.000000 0.000000 m /eight glyphshow
6.362305 0.000000 m /four glyphshow
grestore
0.500 setlinewidth
1 setlinejoin
2 setlinecap
0.000 0.502 0.000 setrgbcolor
gsave
358.641875 247.018625 m
378.641875 247.018625 l
stroke
grestore
1.000 setlinewidth
0 setlinejoin
0 setlinecap
gsave
/o {
gsave
newpath
translate
1.0 setlinewidth
0 setlinejoin
0 setlinecap
-3 -3 m
3 -3 l
3 3 l
-3 3 l
cl

gsave
grestore
stroke
grestore
} bind def
368.642 247.019 o
grestore
0.000 setgray
gsave
386.641875 243.518625 translate
0.000000 rotate
0.000000 0.000000 m /seven glyphshow
6.362305 0.000000 m /two glyphshow
grestore
0.500 setlinewidth
1 setlinejoin
2 setlinecap
0.502 0.000 0.502 setrgbcolor
gsave
358.641875 232.34675 m
378.641875 232.34675 l
stroke
grestore
1.000 setlinewidth
0 setlinejoin
0 setlinecap
gsave
/o {
gsave
newpath
translate
1.0 setlinewidth
0 setlinejoin
0 setlinecap
0 -4.242641 m
4.242641 0 l
0 4.242641 l
-4.242641 0 l
cl

gsave
grestore
stroke
grestore
} bind def
368.642 232.347 o
grestore
0.000 setgray
gsave
386.641875 228.846750 translate
0.000000 rotate
0.000000 0.000000 m /three glyphshow
6.362305 0.000000 m /five glyphshow
grestore

end
showpage
