%!PS-Adobe-3.0 EPSF-3.0
%%Title: graphics/dataugm_estimated_noinc_noscaled.eps
%%Creator: matplotlib version 3.0.3, http://matplotlib.org/
%%CreationDate: Fri May  3 15:17:20 2019
%%Orientation: portrait
%%BoundingBox: 75 223 536 568
%%EndComments
%%BeginProlog
/mpldict 8 dict def
mpldict begin
/m { moveto } bind def
/l { lineto } bind def
/r { rlineto } bind def
/c { curveto } bind def
/cl { closepath } bind def
/box {
m
1 index 0 r
0 exch r
neg 0 r
cl
} bind def
/clipbox {
box
clip
newpath
} bind def
%!PS-Adobe-3.0 Resource-Font
%%Title: DejaVu Sans
%%Copyright: Copyright (c) 2003 by Bitstream, Inc. All Rights Reserved. Copyright (c) 2006 by Tavmjong Bah. All Rights Reserved. DejaVu changes are in public domain 
%%Creator: Converted from TrueType to type 3 by PPR
25 dict begin
/_d{bind def}bind def
/_m{moveto}_d
/_l{lineto}_d
/_cl{closepath eofill}_d
/_c{curveto}_d
/_sc{7 -1 roll{setcachedevice}{pop pop pop pop pop pop}ifelse}_d
/_e{exec}_d
/FontName /DejaVuSans def
/PaintType 0 def
/FontMatrix[.001 0 0 .001 0 0]def
/FontBBox[-1021 -463 1793 1232]def
/FontType 3 def
/Encoding [ /space /zero /one /two /three /four /five /six /seven /eight /G /M /P /R /S /Y /bracketleft /bracketright /a /e /g /i /m /n /o /z /uni0394 ] def
/FontInfo 10 dict dup begin
/FamilyName (DejaVu Sans) def
/FullName (DejaVu Sans) def
/Notice (Copyright (c) 2003 by Bitstream, Inc. All Rights Reserved. Copyright (c) 2006 by Tavmjong Bah. All Rights Reserved. DejaVu changes are in public domain ) def
/Weight (Book) def
/Version (Version 2.35) def
/ItalicAngle 0.0 def
/isFixedPitch false def
/UnderlinePosition -130 def
/UnderlineThickness 90 def
end readonly def
/CharStrings 28 dict dup begin
/.notdef 0 def
/space{318 0 0 0 0 0 _sc
}_d
/zero{636 0 66 -13 570 742 _sc
318 664 _m
267 664 229 639 203 589 _c
177 539 165 464 165 364 _c
165 264 177 189 203 139 _c
229 89 267 64 318 64 _c
369 64 407 89 433 139 _c
458 189 471 264 471 364 _c
471 464 458 539 433 589 _c
407 639 369 664 318 664 _c
318 742 _m
399 742 461 709 505 645 _c
548 580 570 486 570 364 _c
570 241 548 147 505 83 _c
461 19 399 -13 318 -13 _c
236 -13 173 19 130 83 _c
87 147 66 241 66 364 _c
66 486 87 580 130 645 _c
173 709 236 742 318 742 _c
_cl}_d
/one{636 0 110 0 544 729 _sc
124 83 _m
285 83 _l
285 639 _l
110 604 _l
110 694 _l
284 729 _l
383 729 _l
383 83 _l
544 83 _l
544 0 _l
124 0 _l
124 83 _l
_cl}_d
/two{{636 0 73 0 536 742 _sc
192 83 _m
536 83 _l
536 0 _l
73 0 _l
73 83 _l
110 121 161 173 226 239 _c
290 304 331 346 348 365 _c
380 400 402 430 414 455 _c
426 479 433 504 433 528 _c
433 566 419 598 392 622 _c
365 646 330 659 286 659 _c
255 659 222 653 188 643 _c
154 632 117 616 78 594 _c
78 694 _l
118 710 155 722 189 730 _c
223 738 255 742 284 742 _c
}_e{359 742 419 723 464 685 _c
509 647 532 597 532 534 _c
532 504 526 475 515 449 _c
504 422 484 390 454 354 _c
446 344 420 317 376 272 _c
332 227 271 164 192 83 _c
_cl}_e}_d
/three{{636 0 76 -13 556 742 _sc
406 393 _m
453 383 490 362 516 330 _c
542 298 556 258 556 212 _c
556 140 531 84 482 45 _c
432 6 362 -13 271 -13 _c
240 -13 208 -10 176 -4 _c
144 1 110 10 76 22 _c
76 117 _l
103 101 133 89 166 81 _c
198 73 232 69 268 69 _c
330 69 377 81 409 105 _c
441 129 458 165 458 212 _c
458 254 443 288 413 312 _c
383 336 341 349 287 349 _c
}_e{202 349 _l
202 430 _l
291 430 _l
339 430 376 439 402 459 _c
428 478 441 506 441 543 _c
441 580 427 609 401 629 _c
374 649 336 659 287 659 _c
260 659 231 656 200 650 _c
169 644 135 635 98 623 _c
98 711 _l
135 721 170 729 203 734 _c
235 739 266 742 296 742 _c
370 742 429 725 473 691 _c
517 657 539 611 539 553 _c
539 513 527 479 504 451 _c
481 423 448 403 406 393 _c
_cl}_e}_d
/four{636 0 49 0 580 729 _sc
378 643 _m
129 254 _l
378 254 _l
378 643 _l
352 729 _m
476 729 _l
476 254 _l
580 254 _l
580 172 _l
476 172 _l
476 0 _l
378 0 _l
378 172 _l
49 172 _l
49 267 _l
352 729 _l
_cl}_d
/five{{636 0 77 -13 549 729 _sc
108 729 _m
495 729 _l
495 646 _l
198 646 _l
198 467 _l
212 472 227 476 241 478 _c
255 480 270 482 284 482 _c
365 482 429 459 477 415 _c
525 370 549 310 549 234 _c
549 155 524 94 475 51 _c
426 8 357 -13 269 -13 _c
238 -13 207 -10 175 -6 _c
143 -1 111 6 77 17 _c
77 116 _l
106 100 136 88 168 80 _c
199 72 232 69 267 69 _c
}_e{323 69 368 83 401 113 _c
433 143 450 183 450 234 _c
450 284 433 324 401 354 _c
368 384 323 399 267 399 _c
241 399 214 396 188 390 _c
162 384 135 375 108 363 _c
108 729 _l
_cl}_e}_d
/six{{636 0 70 -13 573 742 _sc
330 404 _m
286 404 251 388 225 358 _c
199 328 186 286 186 234 _c
186 181 199 139 225 109 _c
251 79 286 64 330 64 _c
374 64 409 79 435 109 _c
461 139 474 181 474 234 _c
474 286 461 328 435 358 _c
409 388 374 404 330 404 _c
526 713 _m
526 623 _l
501 635 476 644 451 650 _c
425 656 400 659 376 659 _c
310 659 260 637 226 593 _c
}_e{192 549 172 482 168 394 _c
187 422 211 444 240 459 _c
269 474 301 482 336 482 _c
409 482 467 459 509 415 _c
551 371 573 310 573 234 _c
573 159 550 99 506 54 _c
462 9 403 -13 330 -13 _c
246 -13 181 19 137 83 _c
92 147 70 241 70 364 _c
70 479 97 571 152 639 _c
206 707 280 742 372 742 _c
396 742 421 739 447 735 _c
472 730 498 723 526 713 _c
_cl}_e}_d
/seven{636 0 82 0 551 729 _sc
82 729 _m
551 729 _l
551 687 _l
286 0 _l
183 0 _l
432 646 _l
82 646 _l
82 729 _l
_cl}_d
/eight{{636 0 68 -13 568 742 _sc
318 346 _m
271 346 234 333 207 308 _c
180 283 167 249 167 205 _c
167 161 180 126 207 101 _c
234 76 271 64 318 64 _c
364 64 401 76 428 102 _c
455 127 469 161 469 205 _c
469 249 455 283 429 308 _c
402 333 365 346 318 346 _c
219 388 _m
177 398 144 418 120 447 _c
96 476 85 511 85 553 _c
85 611 105 657 147 691 _c
188 725 245 742 318 742 _c
}_e{390 742 447 725 489 691 _c
530 657 551 611 551 553 _c
551 511 539 476 515 447 _c
491 418 459 398 417 388 _c
464 377 501 355 528 323 _c
554 291 568 251 568 205 _c
568 134 546 80 503 43 _c
459 5 398 -13 318 -13 _c
237 -13 175 5 132 43 _c
89 80 68 134 68 205 _c
68 251 81 291 108 323 _c
134 355 171 377 219 388 _c
183 544 _m
183 506 194 476 218 455 _c
}_e{242 434 275 424 318 424 _c
360 424 393 434 417 455 _c
441 476 453 506 453 544 _c
453 582 441 611 417 632 _c
393 653 360 664 318 664 _c
275 664 242 653 218 632 _c
194 611 183 582 183 544 _c
_cl}_e}_d
/G{{775 0 56 -13 693 742 _sc
595 104 _m
595 300 _l
434 300 _l
434 381 _l
693 381 _l
693 68 _l
655 40 613 20 567 7 _c
521 -6 472 -13 420 -13 _c
306 -13 216 20 152 86 _c
88 152 56 245 56 364 _c
56 482 88 575 152 642 _c
216 708 306 742 420 742 _c
467 742 512 736 555 724 _c
598 712 638 695 674 673 _c
674 568 _l
637 598 598 621 557 637 _c
516 653 473 661 428 661 _c
}_e{338 661 271 636 227 586 _c
182 536 160 462 160 364 _c
160 265 182 191 227 141 _c
271 91 338 67 428 67 _c
462 67 493 70 521 76 _c
549 82 573 91 595 104 _c
_cl}_e}_d
/M{863 0 98 0 765 729 _sc
98 729 _m
245 729 _l
431 233 _l
618 729 _l
765 729 _l
765 0 _l
669 0 _l
669 640 _l
481 140 _l
382 140 _l
194 640 _l
194 0 _l
98 0 _l
98 729 _l
_cl}_d
/P{603 0 98 0 569 729 _sc
197 648 _m
197 374 _l
321 374 _l
367 374 402 385 427 409 _c
452 433 465 467 465 511 _c
465 555 452 588 427 612 _c
402 636 367 648 321 648 _c
197 648 _l
98 729 _m
321 729 _l
402 729 464 710 506 673 _c
548 636 569 582 569 511 _c
569 439 548 384 506 348 _c
464 311 402 293 321 293 _c
197 293 _l
197 0 _l
98 0 _l
98 729 _l
_cl}_d
/R{{695 0 98 0 666 729 _sc
444 342 _m
465 334 486 319 506 296 _c
526 272 546 240 566 199 _c
666 0 _l
560 0 _l
467 187 _l
443 235 419 268 397 284 _c
374 300 343 308 304 308 _c
197 308 _l
197 0 _l
98 0 _l
98 729 _l
321 729 _l
404 729 466 711 507 677 _c
548 642 569 589 569 519 _c
569 473 558 434 537 404 _c
515 374 484 353 444 342 _c
197 648 _m
197 389 _l
321 389 _l
}_e{368 389 404 400 428 422 _c
452 444 465 476 465 519 _c
465 561 452 593 428 615 _c
404 637 368 648 321 648 _c
197 648 _l
_cl}_e}_d
/S{{635 0 66 -13 579 742 _sc
535 705 _m
535 609 _l
497 627 462 640 429 649 _c
395 657 363 662 333 662 _c
279 662 237 651 208 631 _c
179 610 165 580 165 542 _c
165 510 174 485 194 469 _c
213 452 250 439 304 429 _c
364 417 _l
437 403 491 378 526 343 _c
561 307 579 260 579 201 _c
579 130 555 77 508 41 _c
460 5 391 -13 300 -13 _c
265 -13 228 -9 189 -2 _c
}_e{150 5 110 16 69 32 _c
69 134 _l
109 111 148 94 186 83 _c
224 71 262 66 300 66 _c
356 66 399 77 430 99 _c
460 121 476 152 476 194 _c
476 230 465 258 443 278 _c
421 298 385 313 335 323 _c
275 335 _l
201 349 148 372 115 404 _c
82 435 66 478 66 534 _c
66 598 88 649 134 686 _c
179 723 242 742 322 742 _c
356 742 390 739 426 733 _c
461 727 497 717 535 705 _c
}_e{_cl}_e}_d
/Y{611 0 -1 0 613 729 _sc
-1 729 _m
104 729 _l
306 429 _l
507 729 _l
613 729 _l
355 347 _l
355 0 _l
256 0 _l
256 347 _l
-1 729 _l
_cl}_d
/bracketleft{390 0 86 -131 293 760 _sc
86 760 _m
293 760 _l
293 690 _l
176 690 _l
176 -61 _l
293 -61 _l
293 -131 _l
86 -131 _l
86 760 _l
_cl}_d
/bracketright{390 0 97 -131 304 760 _sc
304 760 _m
304 -131 _l
97 -131 _l
97 -61 _l
214 -61 _l
214 690 _l
97 690 _l
97 760 _l
304 760 _l
_cl}_d
/a{{613 0 60 -13 522 560 _sc
343 275 _m
270 275 220 266 192 250 _c
164 233 150 205 150 165 _c
150 133 160 107 181 89 _c
202 70 231 61 267 61 _c
317 61 357 78 387 114 _c
417 149 432 196 432 255 _c
432 275 _l
343 275 _l
522 312 _m
522 0 _l
432 0 _l
432 83 _l
411 49 385 25 355 10 _c
325 -5 287 -13 243 -13 _c
187 -13 142 2 109 33 _c
76 64 60 106 60 159 _c
}_e{60 220 80 266 122 298 _c
163 329 224 345 306 345 _c
432 345 _l
432 354 _l
432 395 418 427 391 450 _c
364 472 326 484 277 484 _c
245 484 215 480 185 472 _c
155 464 127 453 100 439 _c
100 522 _l
132 534 164 544 195 550 _c
226 556 256 560 286 560 _c
365 560 424 539 463 498 _c
502 457 522 395 522 312 _c
_cl}_e}_d
/e{{615 0 55 -13 562 560 _sc
562 296 _m
562 252 _l
149 252 _l
153 190 171 142 205 110 _c
238 78 284 62 344 62 _c
378 62 412 66 444 74 _c
476 82 509 95 541 113 _c
541 28 _l
509 14 476 3 442 -3 _c
408 -9 373 -13 339 -13 _c
251 -13 182 12 131 62 _c
80 112 55 181 55 268 _c
55 357 79 428 127 481 _c
175 533 241 560 323 560 _c
397 560 455 536 498 489 _c
}_e{540 441 562 377 562 296 _c
472 322 _m
471 371 457 410 431 440 _c
404 469 368 484 324 484 _c
274 484 234 469 204 441 _c
174 413 156 373 152 322 _c
472 322 _l
_cl}_e}_d
/g{{635 0 55 -207 544 560 _sc
454 280 _m
454 344 440 395 414 431 _c
387 467 349 485 301 485 _c
253 485 215 467 188 431 _c
161 395 148 344 148 280 _c
148 215 161 165 188 129 _c
215 93 253 75 301 75 _c
349 75 387 93 414 129 _c
440 165 454 215 454 280 _c
544 68 _m
544 -24 523 -93 482 -139 _c
440 -184 377 -207 292 -207 _c
260 -207 231 -204 203 -200 _c
175 -195 147 -188 121 -178 _c
}_e{121 -91 _l
147 -105 173 -115 199 -122 _c
225 -129 251 -133 278 -133 _c
336 -133 380 -117 410 -87 _c
439 -56 454 -10 454 52 _c
454 96 _l
435 64 411 40 382 24 _c
353 8 319 0 279 0 _c
211 0 157 25 116 76 _c
75 127 55 195 55 280 _c
55 364 75 432 116 483 _c
157 534 211 560 279 560 _c
319 560 353 552 382 536 _c
411 520 435 496 454 464 _c
454 547 _l
544 547 _l
}_e{544 68 _l
_cl}_e}_d
/i{278 0 94 0 184 760 _sc
94 547 _m
184 547 _l
184 0 _l
94 0 _l
94 547 _l
94 760 _m
184 760 _l
184 646 _l
94 646 _l
94 760 _l
_cl}_d
/m{{974 0 91 0 889 560 _sc
520 442 _m
542 482 569 511 600 531 _c
631 550 668 560 711 560 _c
767 560 811 540 842 500 _c
873 460 889 403 889 330 _c
889 0 _l
799 0 _l
799 327 _l
799 379 789 418 771 444 _c
752 469 724 482 686 482 _c
639 482 602 466 575 435 _c
548 404 535 362 535 309 _c
535 0 _l
445 0 _l
445 327 _l
445 379 435 418 417 444 _c
398 469 369 482 331 482 _c
}_e{285 482 248 466 221 435 _c
194 404 181 362 181 309 _c
181 0 _l
91 0 _l
91 547 _l
181 547 _l
181 462 _l
201 495 226 520 255 536 _c
283 552 317 560 357 560 _c
397 560 430 550 458 530 _c
486 510 506 480 520 442 _c
_cl}_e}_d
/n{634 0 91 0 549 560 _sc
549 330 _m
549 0 _l
459 0 _l
459 327 _l
459 379 448 417 428 443 _c
408 469 378 482 338 482 _c
289 482 251 466 223 435 _c
195 404 181 362 181 309 _c
181 0 _l
91 0 _l
91 547 _l
181 547 _l
181 462 _l
202 494 227 519 257 535 _c
286 551 320 560 358 560 _c
420 560 468 540 500 501 _c
532 462 549 405 549 330 _c
_cl}_d
/o{612 0 55 -13 557 560 _sc
306 484 _m
258 484 220 465 192 427 _c
164 389 150 338 150 273 _c
150 207 163 156 191 118 _c
219 80 257 62 306 62 _c
354 62 392 80 420 118 _c
448 156 462 207 462 273 _c
462 337 448 389 420 427 _c
392 465 354 484 306 484 _c
306 560 _m
384 560 445 534 490 484 _c
534 433 557 363 557 273 _c
557 183 534 113 490 63 _c
445 12 384 -13 306 -13 _c
227 -13 165 12 121 63 _c
77 113 55 183 55 273 _c
55 363 77 433 121 484 _c
165 534 227 560 306 560 _c
_cl}_d
/z{525 0 43 0 482 547 _sc
55 547 _m
482 547 _l
482 465 _l
144 72 _l
482 72 _l
482 0 _l
43 0 _l
43 82 _l
381 475 _l
55 475 _l
55 547 _l
_cl}_d
/uni0394{684 0 8 0 676 729 _sc
342 632 _m
142 82 _l
542 82 _l
342 632 _l
8 0 _m
286 729 _l
398 729 _l
676 0 _l
8 0 _l
_cl}_d
end readonly def

/BuildGlyph
 {exch begin
 CharStrings exch
 2 copy known not{pop /.notdef}if
 true 3 1 roll get exec
 end}_d

/BuildChar {
 1 index /Encoding get exch get
 1 index /BuildGlyph get exec
}_d

FontName currentdict end definefont pop
end
%%EndProlog
mpldict begin
75.6 223.2 translate
460.8 345.6 0 0 clipbox
gsave
0 0 m
460.8 0 l
460.8 345.6 l
0 345.6 l
cl
1.000 setgray
fill
grestore
gsave
57.6 38.016 m
414.72 38.016 l
414.72 304.128 l
57.6 304.128 l
cl
1.000 setgray
fill
grestore
1.000 setlinewidth
1 setlinejoin
0 setlinecap
[] 0 setdash
1.000 0.000 0.000 setrgbcolor
gsave
357.1 266.1 57.6 38.02 clipbox
398.043991 249.170958 m
396.979028 245.893338 l
393.532734 245.893338 l
396.320844 243.867657 l
395.255881 240.590037 l
398.043991 242.615718 l
400.832101 240.590037 l
399.767138 243.867657 l
402.555248 245.893338 l
399.108954 245.893338 l
cl
stroke
grestore
gsave
357.1 266.1 57.6 38.02 clipbox
398.043991 286.611115 m
396.979028 283.333494 l
393.532734 283.333494 l
396.320844 281.307814 l
395.255881 278.030194 l
398.043991 280.055874 l
400.832101 278.030194 l
399.767138 281.307814 l
402.555248 283.333494 l
399.108954 283.333494 l
cl
stroke
grestore
gsave
357.1 266.1 57.6 38.02 clipbox
398.043991 239.810919 m
396.979028 236.533299 l
393.532734 236.533299 l
396.320844 234.507618 l
395.255881 231.229998 l
398.043991 233.255679 l
400.832101 231.229998 l
399.767138 234.507618 l
402.555248 236.533299 l
399.108954 236.533299 l
cl
stroke
grestore
gsave
357.1 266.1 57.6 38.02 clipbox
398.043991 230.45088 m
396.979028 227.17326 l
393.532734 227.17326 l
396.320844 225.147579 l
395.255881 221.869959 l
398.043991 223.895639 l
400.832101 221.869959 l
399.767138 225.147579 l
402.555248 227.17326 l
399.108954 227.17326 l
cl
stroke
grestore
gsave
357.1 266.1 57.6 38.02 clipbox
398.043991 267.891036 m
396.979028 264.613416 l
393.532734 264.613416 l
396.320844 262.587736 l
395.255881 259.310115 l
398.043991 261.335796 l
400.832101 259.310115 l
399.767138 262.587736 l
402.555248 264.613416 l
399.108954 264.613416 l
cl
stroke
grestore
gsave
357.1 266.1 57.6 38.02 clipbox
398.043991 295.971154 m
396.979028 292.693534 l
393.532734 292.693534 l
396.320844 290.667853 l
395.255881 287.390233 l
398.043991 289.415913 l
400.832101 287.390233 l
399.767138 290.667853 l
402.555248 292.693534 l
399.108954 292.693534 l
cl
stroke
grestore
gsave
357.1 266.1 57.6 38.02 clipbox
398.043991 225.77086 m
396.979028 222.49324 l
393.532734 222.49324 l
396.320844 220.467559 l
395.255881 217.189939 l
398.043991 219.21562 l
400.832101 217.189939 l
399.767138 220.467559 l
402.555248 222.49324 l
399.108954 222.49324 l
cl
stroke
grestore
gsave
357.1 266.1 57.6 38.02 clipbox
398.043991 263.211017 m
396.979028 259.933397 l
393.532734 259.933397 l
396.320844 257.907716 l
395.255881 254.630096 l
398.043991 256.655776 l
400.832101 254.630096 l
399.767138 257.907716 l
402.555248 259.933397 l
399.108954 259.933397 l
cl
stroke
grestore
gsave
357.1 266.1 57.6 38.02 clipbox
398.043991 249.170958 m
396.979028 245.893338 l
393.532734 245.893338 l
396.320844 243.867657 l
395.255881 240.590037 l
398.043991 242.615718 l
400.832101 240.590037 l
399.767138 243.867657 l
402.555248 245.893338 l
399.108954 245.893338 l
cl
stroke
grestore
gsave
357.1 266.1 57.6 38.02 clipbox
398.043991 239.810919 m
396.979028 236.533299 l
393.532734 236.533299 l
396.320844 234.507618 l
395.255881 231.229998 l
398.043991 233.255679 l
400.832101 231.229998 l
399.767138 234.507618 l
402.555248 236.533299 l
399.108954 236.533299 l
cl
stroke
grestore
0.000 setgray
gsave
357.1 266.1 57.6 38.02 clipbox
250.470713 244.490939 m
249.405749 241.213318 l
245.959456 241.213318 l
248.747566 239.187638 l
247.682602 235.910017 l
250.470713 237.935698 l
253.258823 235.910017 l
252.19386 239.187638 l
254.98197 241.213318 l
251.535676 241.213318 l
cl
stroke
grestore
gsave
357.1 266.1 57.6 38.02 clipbox
250.470713 225.77086 m
249.405749 222.49324 l
245.959456 222.49324 l
248.747566 220.467559 l
247.682602 217.189939 l
250.470713 219.21562 l
253.258823 217.189939 l
252.19386 220.467559 l
254.98197 222.49324 l
251.535676 222.49324 l
cl
stroke
grestore
gsave
357.1 266.1 57.6 38.02 clipbox
250.470713 249.170958 m
249.405749 245.893338 l
245.959456 245.893338 l
248.747566 243.867657 l
247.682602 240.590037 l
250.470713 242.615718 l
253.258823 240.590037 l
252.19386 243.867657 l
254.98197 245.893338 l
251.535676 245.893338 l
cl
stroke
grestore
gsave
357.1 266.1 57.6 38.02 clipbox
250.470713 207.050782 m
249.405749 203.773162 l
245.959456 203.773162 l
248.747566 201.747481 l
247.682602 198.469861 l
250.470713 200.495542 l
253.258823 198.469861 l
252.19386 201.747481 l
254.98197 203.773162 l
251.535676 203.773162 l
cl
stroke
grestore
gsave
357.1 266.1 57.6 38.02 clipbox
250.470713 267.891036 m
249.405749 264.613416 l
245.959456 264.613416 l
248.747566 262.587736 l
247.682602 259.310115 l
250.470713 261.335796 l
253.258823 259.310115 l
252.19386 262.587736 l
254.98197 264.613416 l
251.535676 264.613416 l
cl
stroke
grestore
gsave
357.1 266.1 57.6 38.02 clipbox
250.470713 193.010723 m
249.405749 189.733103 l
245.959456 189.733103 l
248.747566 187.707422 l
247.682602 184.429802 l
250.470713 186.455483 l
253.258823 184.429802 l
252.19386 187.707422 l
254.98197 189.733103 l
251.535676 189.733103 l
cl
stroke
grestore
gsave
357.1 266.1 57.6 38.02 clipbox
250.470713 225.77086 m
249.405749 222.49324 l
245.959456 222.49324 l
248.747566 220.467559 l
247.682602 217.189939 l
250.470713 219.21562 l
253.258823 217.189939 l
252.19386 220.467559 l
254.98197 222.49324 l
251.535676 222.49324 l
cl
stroke
grestore
gsave
357.1 266.1 57.6 38.02 clipbox
250.470713 277.251076 m
249.405749 273.973455 l
245.959456 273.973455 l
248.747566 271.947775 l
247.682602 268.670154 l
250.470713 270.695835 l
253.258823 268.670154 l
252.19386 271.947775 l
254.98197 273.973455 l
251.535676 273.973455 l
cl
stroke
grestore
gsave
357.1 266.1 57.6 38.02 clipbox
250.470713 230.45088 m
249.405749 227.17326 l
245.959456 227.17326 l
248.747566 225.147579 l
247.682602 221.869959 l
250.470713 223.895639 l
253.258823 221.869959 l
252.19386 225.147579 l
254.98197 227.17326 l
251.535676 227.17326 l
cl
stroke
grestore
gsave
357.1 266.1 57.6 38.02 clipbox
250.470713 221.090841 m
249.405749 217.81322 l
245.959456 217.81322 l
248.747566 215.78754 l
247.682602 212.50992 l
250.470713 214.5356 l
253.258823 212.50992 l
252.19386 215.78754 l
254.98197 217.81322 l
251.535676 217.81322 l
cl
stroke
grestore
0.000 0.502 0.000 setrgbcolor
gsave
357.1 266.1 57.6 38.02 clipbox
206.163842 253.850978 m
205.098879 250.573357 l
201.652585 250.573357 l
204.440695 248.547677 l
203.375732 245.270057 l
206.163842 247.295737 l
208.951952 245.270057 l
207.886989 248.547677 l
210.675099 250.573357 l
207.228805 250.573357 l
cl
stroke
grestore
gsave
357.1 266.1 57.6 38.02 clipbox
206.163842 230.45088 m
205.098879 227.17326 l
201.652585 227.17326 l
204.440695 225.147579 l
203.375732 221.869959 l
206.163842 223.895639 l
208.951952 221.869959 l
207.886989 225.147579 l
210.675099 227.17326 l
207.228805 227.17326 l
cl
stroke
grestore
gsave
357.1 266.1 57.6 38.02 clipbox
206.163842 272.571056 m
205.098879 269.293436 l
201.652585 269.293436 l
204.440695 267.267755 l
203.375732 263.990135 l
206.163842 266.015816 l
208.951952 263.990135 l
207.886989 267.267755 l
210.675099 269.293436 l
207.228805 269.293436 l
cl
stroke
grestore
gsave
357.1 266.1 57.6 38.02 clipbox
206.163842 225.77086 m
205.098879 222.49324 l
201.652585 222.49324 l
204.440695 220.467559 l
203.375732 217.189939 l
206.163842 219.21562 l
208.951952 217.189939 l
207.886989 220.467559 l
210.675099 222.49324 l
207.228805 222.49324 l
cl
stroke
grestore
gsave
357.1 266.1 57.6 38.02 clipbox
206.163842 239.810919 m
205.098879 236.533299 l
201.652585 236.533299 l
204.440695 234.507618 l
203.375732 231.229998 l
206.163842 233.255679 l
208.951952 231.229998 l
207.886989 234.507618 l
210.675099 236.533299 l
207.228805 236.533299 l
cl
stroke
grestore
gsave
357.1 266.1 57.6 38.02 clipbox
206.163842 239.810919 m
205.098879 236.533299 l
201.652585 236.533299 l
204.440695 234.507618 l
203.375732 231.229998 l
206.163842 233.255679 l
208.951952 231.229998 l
207.886989 234.507618 l
210.675099 236.533299 l
207.228805 236.533299 l
cl
stroke
grestore
gsave
357.1 266.1 57.6 38.02 clipbox
206.163842 244.490939 m
205.098879 241.213318 l
201.652585 241.213318 l
204.440695 239.187638 l
203.375732 235.910017 l
206.163842 237.935698 l
208.951952 235.910017 l
207.886989 239.187638 l
210.675099 241.213318 l
207.228805 241.213318 l
cl
stroke
grestore
gsave
357.1 266.1 57.6 38.02 clipbox
206.163842 207.050782 m
205.098879 203.773162 l
201.652585 203.773162 l
204.440695 201.747481 l
203.375732 198.469861 l
206.163842 200.495542 l
208.951952 198.469861 l
207.886989 201.747481 l
210.675099 203.773162 l
207.228805 203.773162 l
cl
stroke
grestore
gsave
357.1 266.1 57.6 38.02 clipbox
206.163842 211.730802 m
205.098879 208.453181 l
201.652585 208.453181 l
204.440695 206.427501 l
203.375732 203.14988 l
206.163842 205.175561 l
208.951952 203.14988 l
207.886989 206.427501 l
210.675099 208.453181 l
207.228805 208.453181 l
cl
stroke
grestore
gsave
357.1 266.1 57.6 38.02 clipbox
206.163842 263.211017 m
205.098879 259.933397 l
201.652585 259.933397 l
204.440695 257.907716 l
203.375732 254.630096 l
206.163842 256.655776 l
208.951952 254.630096 l
207.886989 257.907716 l
210.675099 259.933397 l
207.228805 259.933397 l
cl
stroke
grestore
0.502 0.000 0.502 setrgbcolor
gsave
357.1 266.1 57.6 38.02 clipbox
77.080832 85.370273 m
76.015869 82.092653 l
72.569575 82.092653 l
75.357686 80.066972 l
74.292722 76.789352 l
77.080832 78.815033 l
79.868943 76.789352 l
78.803979 80.066972 l
81.59209 82.092653 l
78.145796 82.092653 l
cl
stroke
grestore
gsave
357.1 266.1 57.6 38.02 clipbox
77.080832 127.490449 m
76.015869 124.212829 l
72.569575 124.212829 l
75.357686 122.187148 l
74.292722 118.909528 l
77.080832 120.935209 l
79.868943 118.909528 l
78.803979 122.187148 l
81.59209 124.212829 l
78.145796 124.212829 l
cl
stroke
grestore
gsave
357.1 266.1 57.6 38.02 clipbox
77.080832 94.730312 m
76.015869 91.452692 l
72.569575 91.452692 l
75.357686 89.427011 l
74.292722 86.149391 l
77.080832 88.175072 l
79.868943 86.149391 l
78.803979 89.427011 l
81.59209 91.452692 l
78.145796 91.452692 l
cl
stroke
grestore
gsave
357.1 266.1 57.6 38.02 clipbox
77.080832 57.290156 m
76.015869 54.012535 l
72.569575 54.012536 l
75.357686 51.986855 l
74.292722 48.709235 l
77.080832 50.734915 l
79.868943 48.709235 l
78.803979 51.986855 l
81.59209 54.012536 l
78.145796 54.012535 l
cl
stroke
grestore
gsave
357.1 266.1 57.6 38.02 clipbox
77.080832 127.490449 m
76.015869 124.212829 l
72.569575 124.212829 l
75.357686 122.187148 l
74.292722 118.909528 l
77.080832 120.935209 l
79.868943 118.909528 l
78.803979 122.187148 l
81.59209 124.212829 l
78.145796 124.212829 l
cl
stroke
grestore
gsave
357.1 266.1 57.6 38.02 clipbox
77.080832 94.730312 m
76.015869 91.452692 l
72.569575 91.452692 l
75.357686 89.427011 l
74.292722 86.149391 l
77.080832 88.175072 l
79.868943 86.149391 l
78.803979 89.427011 l
81.59209 91.452692 l
78.145796 91.452692 l
cl
stroke
grestore
gsave
357.1 266.1 57.6 38.02 clipbox
77.080832 104.090351 m
76.015869 100.812731 l
72.569575 100.812731 l
75.357686 98.787051 l
74.292722 95.50943 l
77.080832 97.535111 l
79.868943 95.50943 l
78.803979 98.787051 l
81.59209 100.812731 l
78.145796 100.812731 l
cl
stroke
grestore
gsave
357.1 266.1 57.6 38.02 clipbox
77.080832 178.970665 m
76.015869 175.693044 l
72.569575 175.693044 l
75.357686 173.667364 l
74.292722 170.389743 l
77.080832 172.415424 l
79.868943 170.389743 l
78.803979 173.667364 l
81.59209 175.693044 l
78.145796 175.693044 l
cl
stroke
grestore
gsave
357.1 266.1 57.6 38.02 clipbox
77.080832 132.170469 m
76.015869 128.892849 l
72.569575 128.892849 l
75.357686 126.867168 l
74.292722 123.589548 l
77.080832 125.615229 l
79.868943 123.589548 l
78.803979 126.867168 l
81.59209 128.892849 l
78.145796 128.892849 l
cl
stroke
grestore
gsave
357.1 266.1 57.6 38.02 clipbox
77.080832 85.370273 m
76.015869 82.092653 l
72.569575 82.092653 l
75.357686 80.066972 l
74.292722 76.789352 l
77.080832 78.815033 l
79.868943 76.789352 l
78.803979 80.066972 l
81.59209 82.092653 l
78.145796 82.092653 l
cl
stroke
grestore
0.800 setlinewidth
0.000 setgray
gsave
/o {
gsave
newpath
translate
0.8 setlinewidth
1 setlinejoin
0 setlinecap
0 0 m
0 -3.5 l

gsave
0.000 setgray
fill
grestore
stroke
grestore
} bind def
94.5245 38.016 o
grestore
/DejaVuSans findfont
10.000 scalefont
setfont
gsave
88.165107 23.422250 translate
0.000000 rotate
0.000000 0.000000 m /four glyphshow
6.362305 0.000000 m /zero glyphshow
grestore
gsave
/o {
gsave
newpath
translate
0.8 setlinewidth
1 setlinejoin
0 setlinecap
0 0 m
0 -3.5 l

gsave
0.000 setgray
fill
grestore
stroke
grestore
} bind def
164.299 38.016 o
grestore
gsave
157.939707 23.422250 translate
0.000000 rotate
0.000000 0.000000 m /six glyphshow
6.362305 0.000000 m /zero glyphshow
grestore
gsave
/o {
gsave
newpath
translate
0.8 setlinewidth
1 setlinejoin
0 setlinecap
0 0 m
0 -3.5 l

gsave
0.000 setgray
fill
grestore
stroke
grestore
} bind def
234.074 38.016 o
grestore
gsave
227.714307 23.422250 translate
0.000000 rotate
0.000000 0.000000 m /eight glyphshow
6.362305 0.000000 m /zero glyphshow
grestore
gsave
/o {
gsave
newpath
translate
0.8 setlinewidth
1 setlinejoin
0 setlinecap
0 0 m
0 -3.5 l

gsave
0.000 setgray
fill
grestore
stroke
grestore
} bind def
303.848 38.016 o
grestore
gsave
294.309219 23.422250 translate
0.000000 rotate
0.000000 0.000000 m /one glyphshow
6.362305 0.000000 m /zero glyphshow
12.724609 0.000000 m /zero glyphshow
grestore
gsave
/o {
gsave
newpath
translate
0.8 setlinewidth
1 setlinejoin
0 setlinecap
0 0 m
0 -3.5 l

gsave
0.000 setgray
fill
grestore
stroke
grestore
} bind def
373.623 38.016 o
grestore
gsave
364.083819 23.422250 translate
0.000000 rotate
0.000000 0.000000 m /one glyphshow
6.362305 0.000000 m /two glyphshow
12.724609 0.000000 m /zero glyphshow
grestore
/DejaVuSans findfont
14.000 scalefont
setfont
gsave
176.331875 6.703500 translate
0.000000 rotate
0.000000 0.000000 m /R glyphshow
9.727539 0.000000 m /e glyphshow
18.340820 0.000000 m /g glyphshow
27.227539 0.000000 m /i glyphshow
31.117188 0.000000 m /o glyphshow
39.682617 0.000000 m /n glyphshow
48.555664 0.000000 m /space glyphshow
53.005859 0.000000 m /S glyphshow
61.892578 0.000000 m /i glyphshow
65.782227 0.000000 m /z glyphshow
73.130859 0.000000 m /e glyphshow
81.744141 0.000000 m /space glyphshow
86.194336 0.000000 m /bracketleft glyphshow
91.656250 0.000000 m /n glyphshow
100.529297 0.000000 m /m glyphshow
114.166992 0.000000 m /bracketright glyphshow
grestore
gsave
/o {
gsave
newpath
translate
0.8 setlinewidth
1 setlinejoin
0 setlinecap
0 0 m
-3.5 0 l

gsave
0.000 setgray
fill
grestore
stroke
grestore
} bind def
57.6 80.6269 o
grestore
/DejaVuSans findfont
10.000 scalefont
setfont
gsave
44.240625 76.829982 translate
0.000000 rotate
0.000000 0.000000 m /zero glyphshow
grestore
gsave
/o {
gsave
newpath
translate
0.8 setlinewidth
1 setlinejoin
0 setlinecap
0 0 m
-3.5 0 l

gsave
0.000 setgray
fill
grestore
stroke
grestore
} bind def
57.6 127.427 o
grestore
gsave
37.881250 123.630177 translate
0.000000 rotate
0.000000 0.000000 m /one glyphshow
6.362305 0.000000 m /zero glyphshow
grestore
gsave
/o {
gsave
newpath
translate
0.8 setlinewidth
1 setlinejoin
0 setlinecap
0 0 m
-3.5 0 l

gsave
0.000 setgray
fill
grestore
stroke
grestore
} bind def
57.6 174.227 o
grestore
gsave
37.881250 170.430373 translate
0.000000 rotate
0.000000 0.000000 m /two glyphshow
6.362305 0.000000 m /zero glyphshow
grestore
gsave
/o {
gsave
newpath
translate
0.8 setlinewidth
1 setlinejoin
0 setlinecap
0 0 m
-3.5 0 l

gsave
0.000 setgray
fill
grestore
stroke
grestore
} bind def
57.6 221.027 o
grestore
gsave
37.881250 217.230569 translate
0.000000 rotate
0.000000 0.000000 m /three glyphshow
6.362305 0.000000 m /zero glyphshow
grestore
gsave
/o {
gsave
newpath
translate
0.8 setlinewidth
1 setlinejoin
0 setlinecap
0 0 m
-3.5 0 l

gsave
0.000 setgray
fill
grestore
stroke
grestore
} bind def
57.6 267.828 o
grestore
gsave
37.881250 264.030764 translate
0.000000 rotate
0.000000 0.000000 m /four glyphshow
6.362305 0.000000 m /zero glyphshow
grestore
/DejaVuSans findfont
14.000 scalefont
setfont
gsave
30.975000 135.322000 translate
90.000000 rotate
0.000000 0.000000 m /uni0394 glyphshow
9.577148 0.000000 m /Y glyphshow
18.128906 0.000000 m /S glyphshow
27.015625 0.000000 m /space glyphshow
31.465820 0.000000 m /bracketleft glyphshow
36.927734 0.000000 m /M glyphshow
49.006836 0.000000 m /P glyphshow
57.449219 0.000000 m /a glyphshow
66.028320 0.000000 m /bracketright glyphshow
grestore
0.500 setlinewidth
2 setlinecap
1.000 0.000 0.000 setrgbcolor
gsave
357.1 266.1 57.6 38.02 clipbox
398.043991 263.14762 m
398.043991 263.14762 l
398.043991 263.14762 l
398.043991 263.14762 l
398.043991 263.14762 l
398.043991 263.14762 l
398.043991 263.14762 l
398.043991 263.14762 l
398.043991 263.14762 l
398.043991 263.14762 l
398.043991 263.14762 l
398.043991 263.14762 l
398.043991 263.14762 l
398.043991 263.14762 l
398.043991 263.14762 l
398.043991 263.14762 l
398.043991 263.14762 l
398.043991 263.14762 l
398.043991 263.14762 l
stroke
grestore
1.000 setlinewidth
0 setlinecap
gsave
357.1 266.1 57.6 38.02 clipbox
/o {
gsave
newpath
translate
1.0 setlinewidth
1 setlinejoin
0 setlinecap
0 -3 m
0.795609 -3 1.55874 -2.683901 2.12132 -2.12132 c
2.683901 -1.55874 3 -0.795609 3 0 c
3 0.795609 2.683901 1.55874 2.12132 2.12132 c
1.55874 2.683901 0.795609 3 0 3 c
-0.795609 3 -1.55874 2.683901 -2.12132 2.12132 c
-2.683901 1.55874 -3 0.795609 -3 0 c
-3 -0.795609 -2.683901 -1.55874 -2.12132 -2.12132 c
-1.55874 -2.683901 -0.795609 -3 0 -3 c
cl

gsave
grestore
stroke
grestore
} bind def
398.044 263.148 o
398.044 263.148 o
398.044 263.148 o
398.044 263.148 o
398.044 263.148 o
398.044 263.148 o
398.044 263.148 o
398.044 263.148 o
398.044 263.148 o
398.044 263.148 o
398.044 263.148 o
398.044 263.148 o
398.044 263.148 o
398.044 263.148 o
398.044 263.148 o
398.044 263.148 o
398.044 263.148 o
398.044 263.148 o
398.044 263.148 o
grestore
0.500 setlinewidth
2 setlinecap
0.000 setgray
gsave
357.1 266.1 57.6 38.02 clipbox
250.470713 263.14762 m
250.470713 263.14762 l
250.470713 263.14762 l
250.470713 263.14762 l
250.470713 263.14762 l
250.470713 263.14762 l
250.470713 263.14762 l
250.470713 263.14762 l
250.470713 263.14762 l
250.470713 263.14762 l
250.470713 263.14762 l
250.470713 263.14762 l
250.470713 263.14762 l
250.470713 263.14762 l
250.470713 263.14762 l
250.470713 263.14762 l
250.470713 263.14762 l
250.470713 263.14762 l
250.470713 263.14762 l
stroke
grestore
1.000 setlinewidth
0 setlinejoin
0 setlinecap
gsave
357.1 266.1 57.6 38.02 clipbox
/o {
gsave
newpath
translate
1.0 setlinewidth
0 setlinejoin
0 setlinecap
-0 -3 m
3 3 l
-3 3 l
cl

gsave
grestore
stroke
grestore
} bind def
250.471 263.148 o
250.471 263.148 o
250.471 263.148 o
250.471 263.148 o
250.471 263.148 o
250.471 263.148 o
250.471 263.148 o
250.471 263.148 o
250.471 263.148 o
250.471 263.148 o
250.471 263.148 o
250.471 263.148 o
250.471 263.148 o
250.471 263.148 o
250.471 263.148 o
250.471 263.148 o
250.471 263.148 o
250.471 263.148 o
250.471 263.148 o
grestore
0.500 setlinewidth
1 setlinejoin
2 setlinecap
0.000 0.502 0.000 setrgbcolor
gsave
357.1 266.1 57.6 38.02 clipbox
206.163842 263.14762 m
206.163842 263.14762 l
206.163842 263.14762 l
206.163842 263.14762 l
206.163842 263.14762 l
206.163842 263.14762 l
206.163842 263.14762 l
206.163842 263.14762 l
206.163842 263.14762 l
206.163842 263.14762 l
206.163842 263.14762 l
206.163842 263.14762 l
206.163842 263.14762 l
206.163842 263.14762 l
206.163842 263.14762 l
206.163842 263.14762 l
206.163842 263.14762 l
206.163842 263.14762 l
206.163842 263.14762 l
stroke
grestore
1.000 setlinewidth
0 setlinejoin
0 setlinecap
gsave
357.1 266.1 57.6 38.02 clipbox
/o {
gsave
newpath
translate
1.0 setlinewidth
0 setlinejoin
0 setlinecap
-3 -3 m
3 -3 l
3 3 l
-3 3 l
cl

gsave
grestore
stroke
grestore
} bind def
206.164 263.148 o
206.164 263.148 o
206.164 263.148 o
206.164 263.148 o
206.164 263.148 o
206.164 263.148 o
206.164 263.148 o
206.164 263.148 o
206.164 263.148 o
206.164 263.148 o
206.164 263.148 o
206.164 263.148 o
206.164 263.148 o
206.164 263.148 o
206.164 263.148 o
206.164 263.148 o
206.164 263.148 o
206.164 263.148 o
206.164 263.148 o
grestore
0.500 setlinewidth
1 setlinejoin
2 setlinecap
0.502 0.000 0.502 setrgbcolor
gsave
357.1 266.1 57.6 38.02 clipbox
77.080832 136.787091 m
77.080832 136.787091 l
77.080832 136.787091 l
77.080832 136.787091 l
77.080832 136.787091 l
77.080832 136.787091 l
77.080832 136.787091 l
77.080832 136.787091 l
77.080832 136.787091 l
77.080832 136.787091 l
77.080832 136.787091 l
77.080832 136.787091 l
77.080832 136.787091 l
77.080832 136.787091 l
77.080832 136.787091 l
77.080832 136.787091 l
77.080832 136.787091 l
77.080832 136.787091 l
77.080832 136.787091 l
77.080832 136.787091 l
77.080832 136.787091 l
77.080832 136.787091 l
77.080832 136.787091 l
77.080832 136.787091 l
77.080832 136.787091 l
77.080832 136.787091 l
stroke
grestore
1.000 setlinewidth
0 setlinejoin
0 setlinecap
gsave
357.1 266.1 57.6 38.02 clipbox
/o {
gsave
newpath
translate
1.0 setlinewidth
0 setlinejoin
0 setlinecap
0 -4.242641 m
4.242641 0 l
0 4.242641 l
-4.242641 0 l
cl

gsave
grestore
stroke
grestore
} bind def
77.0808 136.787 o
77.0808 136.787 o
77.0808 136.787 o
77.0808 136.787 o
77.0808 136.787 o
77.0808 136.787 o
77.0808 136.787 o
77.0808 136.787 o
77.0808 136.787 o
77.0808 136.787 o
77.0808 136.787 o
77.0808 136.787 o
77.0808 136.787 o
77.0808 136.787 o
77.0808 136.787 o
77.0808 136.787 o
77.0808 136.787 o
77.0808 136.787 o
77.0808 136.787 o
77.0808 136.787 o
77.0808 136.787 o
77.0808 136.787 o
77.0808 136.787 o
77.0808 136.787 o
77.0808 136.787 o
77.0808 136.787 o
grestore
0.800 setlinewidth
2 setlinecap
[] 0 setdash
0.000 setgray
gsave
57.6 38.016 m
57.6 304.128 l
stroke
grestore
gsave
414.72 38.016 m
414.72 304.128 l
stroke
grestore
gsave
57.6 38.016 m
414.72 38.016 l
stroke
grestore
gsave
57.6 304.128 m
414.72 304.128 l
stroke
grestore
1.000 setlinewidth
0 setlinecap
0.800 setgray
gsave
356.641875 222.768625 m
407.72 222.768625 l
409.053333 222.768625 409.72 223.435292 409.72 224.768625 c
409.72 297.128 l
409.72 298.461333 409.053333 299.128 407.72 299.128 c
356.641875 299.128 l
355.308542 299.128 354.641875 298.461333 354.641875 297.128 c
354.641875 224.768625 l
354.641875 223.435292 355.308542 222.768625 356.641875 222.768625 c
cl
gsave
1.000 setgray
fill
grestore
stroke
grestore
0.000 setgray
/DejaVuSans findfont
10.000 scalefont
setfont
gsave
362.430938 287.534250 translate
0.000000 rotate
0.000000 0.000000 m /G glyphshow
7.749023 0.000000 m /a glyphshow
13.876953 0.000000 m /m glyphshow
23.618164 0.000000 m /m glyphshow
33.359375 0.000000 m /a glyphshow
grestore
0.500 setlinewidth
1 setlinejoin
2 setlinecap
[] 0 setdash
1.000 0.000 0.000 setrgbcolor
gsave
358.641875 276.362375 m
378.641875 276.362375 l
stroke
grestore
1.000 setlinewidth
0 setlinecap
gsave
/o {
gsave
newpath
translate
1.0 setlinewidth
1 setlinejoin
0 setlinecap
0 -3 m
0.795609 -3 1.55874 -2.683901 2.12132 -2.12132 c
2.683901 -1.55874 3 -0.795609 3 0 c
3 0.795609 2.683901 1.55874 2.12132 2.12132 c
1.55874 2.683901 0.795609 3 0 3 c
-0.795609 3 -1.55874 2.683901 -2.12132 2.12132 c
-2.683901 1.55874 -3 0.795609 -3 0 c
-3 -0.795609 -2.683901 -1.55874 -2.12132 -2.12132 c
-1.55874 -2.683901 -0.795609 -3 0 -3 c
cl

gsave
grestore
stroke
grestore
} bind def
368.642 276.362 o
grestore
0.000 setgray
gsave
386.641875 272.862375 translate
0.000000 rotate
0.000000 0.000000 m /one glyphshow
6.362305 0.000000 m /two glyphshow
12.724609 0.000000 m /seven glyphshow
grestore
0.500 setlinewidth
2 setlinecap
gsave
358.641875 261.6905 m
378.641875 261.6905 l
stroke
grestore
1.000 setlinewidth
0 setlinejoin
0 setlinecap
gsave
/o {
gsave
newpath
translate
1.0 setlinewidth
0 setlinejoin
0 setlinecap
-0 -3 m
3 3 l
-3 3 l
cl

gsave
grestore
stroke
grestore
} bind def
368.642 261.69 o
grestore
gsave
386.641875 258.190500 translate
0.000000 rotate
0.000000 0.000000 m /eight glyphshow
6.362305 0.000000 m /four glyphshow
grestore
0.500 setlinewidth
1 setlinejoin
2 setlinecap
0.000 0.502 0.000 setrgbcolor
gsave
358.641875 247.018625 m
378.641875 247.018625 l
stroke
grestore
1.000 setlinewidth
0 setlinejoin
0 setlinecap
gsave
/o {
gsave
newpath
translate
1.0 setlinewidth
0 setlinejoin
0 setlinecap
-3 -3 m
3 -3 l
3 3 l
-3 3 l
cl

gsave
grestore
stroke
grestore
} bind def
368.642 247.019 o
grestore
0.000 setgray
gsave
386.641875 243.518625 translate
0.000000 rotate
0.000000 0.000000 m /seven glyphshow
6.362305 0.000000 m /two glyphshow
grestore
0.500 setlinewidth
1 setlinejoin
2 setlinecap
0.502 0.000 0.502 setrgbcolor
gsave
358.641875 232.34675 m
378.641875 232.34675 l
stroke
grestore
1.000 setlinewidth
0 setlinejoin
0 setlinecap
gsave
/o {
gsave
newpath
translate
1.0 setlinewidth
0 setlinejoin
0 setlinecap
0 -4.242641 m
4.242641 0 l
0 4.242641 l
-4.242641 0 l
cl

gsave
grestore
stroke
grestore
} bind def
368.642 232.347 o
grestore
0.000 setgray
gsave
386.641875 228.846750 translate
0.000000 rotate
0.000000 0.000000 m /three glyphshow
6.362305 0.000000 m /five glyphshow
grestore

end
showpage
